ArithmeticLogicUnit/simulation/qsim/ArithmeticLogicUnit.msim.vcd
$comment
	File created using the following command:
		vcd file ArithmeticLogicUnit.msim.vcd -direction
$end
$date
	Mon Oct 24 15:08:28 2022
$end
$version
	ModelSim Version 10.5b
$end
$timescale
	1ps
$end

$scope module ArithmeticLogicUnit_vlg_vec_tst $end
$var reg 2 ! Op [1:0] $end
$var reg 4 " OPERAND [3:0] $end
$var reg 4 # REGISTER [3:0] $end
$var wire 1 $ S [3] $end
$var wire 1 % S [2] $end
$var wire 1 & S [1] $end
$var wire 1 ' S [0] $end

$scope module i1 $end
$var wire 1 ( gnd $end
$var wire 1 ) vcc $end
$var wire 1 * unknown $end
$var tri1 1 + devclrn $end
$var tri1 1 , devpor $end
$var tri1 1 - devoe $end
$var wire 1 . S[3]~output_o $end
$var wire 1 / S[2]~output_o $end
$var wire 1 0 S[1]~output_o $end
$var wire 1 1 S[0]~output_o $end
$var wire 1 2 Op[1]~input_o $end
$var wire 1 3 Op[0]~input_o $end
$var wire 1 4 OPERAND[2]~input_o $end
$var wire 1 5 REGISTER[2]~input_o $end
$var wire 1 6 OPERAND[1]~input_o $end
$var wire 1 7 REGISTER[1]~input_o $end
$var wire 1 8 OPERAND[0]~input_o $end
$var wire 1 9 REGISTER[0]~input_o $end
$var wire 1 : inst2|inst2|inst8~0_combout $end
$var wire 1 ; REGISTER[3]~input_o $end
$var wire 1 < OPERAND[3]~input_o $end
$var wire 1 = inst2|inst4|inst5~0_combout $end
$var wire 1 > inst3|LPM_MUX_component|auto_generated|l1_w3_n0_mux_dataout~0_combout $end
$var wire 1 ? inst3|LPM_MUX_component|auto_generated|l1_w2_n0_mux_dataout~0_combout $end
$var wire 1 @ inst3|LPM_MUX_component|auto_generated|l1_w1_n0_mux_dataout~0_combout $end
$var wire 1 A inst3|LPM_MUX_component|auto_generated|l1_w0_n0_mux_dataout~0_combout $end
$upscope $end
$upscope $end
$enddefinitions $end
#0
$dumpvars
b0 !
b0 "
b0 #
0'
0&
0%
0$
0(
1)
x*
1+
1,
1-
0.
0/
00
01
02
03
04
05
06
07
08
09
0:
0;
0<
0=
0>
0?
0@
0A
$end
#20000
b1 !
13
#40000
b11 !
b10 !
03
12
#60000
b11 !
13
#80000
b100 #
b110 #
b111 #
b100 "
b101 "
b1 !
b0 !
03
02
18
14
19
17
15
1:
1>
1.
1$
1?
1/
1%
#100000
b1 !
13
1@
0?
0/
10
1&
0%
#120000
b11 !
b10 !
03
12
0:
1?
1/
1%
0?
0>
0.
0/
0%
0$
#140000
b11 !
13
#160000
b111 "
b11 #
b1 #
b11 "
b10 "
b1 !
b0 !
03
02
07
05
08
16
04
1A
11
1'
#180000
b0 #
b11 "
b1 !
13
18
09
0A
1?
1/
01
0'
1%
#200000
b1000 #
b111 "
b11 !
b1001 #
b110 "
b10 !
03
12
08
14
19
1;
1=
1:
1A
1>
1.
11
1'
1$
0?
0>
0.
0/
0%
0$
#220000
b1110 "
b1100 "
b1 #
b1000 "
b0 #
b11 !
13
09
0;
06
04
1<
0:
1?
0@
0A
01
00
1/
1%
0&
0'
