MiniCPU/simulation/qsim/MiniCPU.msim.vcd
$comment
	File created using the following command:
		vcd file MiniCPU.msim.vcd -direction
$end
$date
	Mon Oct 24 15:41:54 2022
$end
$version
	ModelSim Version 10.5b
$end
$timescale
	1ps
$end

$scope module MiniCPU_vlg_vec_tst $end
$var reg 1 ! CLK_FPGA $end
$var reg 1 " CLRN_GLOBAL $end
$var reg 1 # INPUT_CLK $end
$var reg 1 $ RST_DEBOUNCER $end
$var wire 1 % MEMORY [15] $end
$var wire 1 & MEMORY [14] $end
$var wire 1 ' MEMORY [13] $end
$var wire 1 ( MEMORY [12] $end
$var wire 1 ) MEMORY [11] $end
$var wire 1 * MEMORY [10] $end
$var wire 1 + MEMORY [9] $end
$var wire 1 , MEMORY [8] $end
$var wire 1 - MEMORY [7] $end
$var wire 1 . MEMORY [6] $end
$var wire 1 / MEMORY [5] $end
$var wire 1 0 MEMORY [4] $end
$var wire 1 1 MEMORY [3] $end
$var wire 1 2 MEMORY [2] $end
$var wire 1 3 MEMORY [1] $end
$var wire 1 4 MEMORY [0] $end
$var wire 1 5 MEMORY_LED_0 [6] $end
$var wire 1 6 MEMORY_LED_0 [5] $end
$var wire 1 7 MEMORY_LED_0 [4] $end
$var wire 1 8 MEMORY_LED_0 [3] $end
$var wire 1 9 MEMORY_LED_0 [2] $end
$var wire 1 : MEMORY_LED_0 [1] $end
$var wire 1 ; MEMORY_LED_0 [0] $end
$var wire 1 < MEMORY_LED_1 [6] $end
$var wire 1 = MEMORY_LED_1 [5] $end
$var wire 1 > MEMORY_LED_1 [4] $end
$var wire 1 ? MEMORY_LED_1 [3] $end
$var wire 1 @ MEMORY_LED_1 [2] $end
$var wire 1 A MEMORY_LED_1 [1] $end
$var wire 1 B MEMORY_LED_1 [0] $end
$var wire 1 C MEMORY_LED_2 [6] $end
$var wire 1 D MEMORY_LED_2 [5] $end
$var wire 1 E MEMORY_LED_2 [4] $end
$var wire 1 F MEMORY_LED_2 [3] $end
$var wire 1 G MEMORY_LED_2 [2] $end
$var wire 1 H MEMORY_LED_2 [1] $end
$var wire 1 I MEMORY_LED_2 [0] $end
$var wire 1 J MEMORY_LED_3 [6] $end
$var wire 1 K MEMORY_LED_3 [5] $end
$var wire 1 L MEMORY_LED_3 [4] $end
$var wire 1 M MEMORY_LED_3 [3] $end
$var wire 1 N MEMORY_LED_3 [2] $end
$var wire 1 O MEMORY_LED_3 [1] $end
$var wire 1 P MEMORY_LED_3 [0] $end
$var wire 1 Q PC_CLRN $end
$var wire 1 R PC_LOAD $end
$var wire 1 S PC_OUT [7] $end
$var wire 1 T PC_OUT [6] $end
$var wire 1 U PC_OUT [5] $end
$var wire 1 V PC_OUT [4] $end
$var wire 1 W PC_OUT [3] $end
$var wire 1 X PC_OUT [2] $end
$var wire 1 Y PC_OUT [1] $end
$var wire 1 Z PC_OUT [0] $end
$var wire 1 [ R1_LED [6] $end
$var wire 1 \ R1_LED [5] $end
$var wire 1 ] R1_LED [4] $end
$var wire 1 ^ R1_LED [3] $end
$var wire 1 _ R1_LED [2] $end
$var wire 1 ` R1_LED [1] $end
$var wire 1 a R1_LED [0] $end
$var wire 1 b R1_LOAD $end
$var wire 1 c R1_OUT [3] $end
$var wire 1 d R1_OUT [2] $end
$var wire 1 e R1_OUT [1] $end
$var wire 1 f R1_OUT [0] $end
$var wire 1 g R2_LED [6] $end
$var wire 1 h R2_LED [5] $end
$var wire 1 i R2_LED [4] $end
$var wire 1 j R2_LED [3] $end
$var wire 1 k R2_LED [2] $end
$var wire 1 l R2_LED [1] $end
$var wire 1 m R2_LED [0] $end
$var wire 1 n R2_LOAD $end
$var wire 1 o R2_OUT [3] $end
$var wire 1 p R2_OUT [2] $end
$var wire 1 q R2_OUT [1] $end
$var wire 1 r R2_OUT [0] $end
$var wire 1 s R_CLRN $end
$var wire 1 t ULA_REGISTER [3] $end
$var wire 1 u ULA_REGISTER [2] $end
$var wire 1 v ULA_REGISTER [1] $end
$var wire 1 w ULA_REGISTER [0] $end

$scope module i1 $end
$var wire 1 x gnd $end
$var wire 1 y vcc $end
$var wire 1 z unknown $end
$var tri1 1 { devclrn $end
$var tri1 1 | devpor $end
$var tri1 1 } devoe $end
$var wire 1 ~ R_CLRN~output_o $end
$var wire 1 !! MEMORY[15]~output_o $end
$var wire 1 "! MEMORY[14]~output_o $end
$var wire 1 #! MEMORY[13]~output_o $end
$var wire 1 $! MEMORY[12]~output_o $end
$var wire 1 %! MEMORY[11]~output_o $end
$var wire 1 &! MEMORY[10]~output_o $end
$var wire 1 '! MEMORY[9]~output_o $end
$var wire 1 (! MEMORY[8]~output_o $end
$var wire 1 )! MEMORY[7]~output_o $end
$var wire 1 *! MEMORY[6]~output_o $end
$var wire 1 +! MEMORY[5]~output_o $end
$var wire 1 ,! MEMORY[4]~output_o $end
$var wire 1 -! MEMORY[3]~output_o $end
$var wire 1 .! MEMORY[2]~output_o $end
$var wire 1 /! MEMORY[1]~output_o $end
$var wire 1 0! MEMORY[0]~output_o $end
$var wire 1 1! PC_OUT[7]~output_o $end
$var wire 1 2! PC_OUT[6]~output_o $end
$var wire 1 3! PC_OUT[5]~output_o $end
$var wire 1 4! PC_OUT[4]~output_o $end
$var wire 1 5! PC_OUT[3]~output_o $end
$var wire 1 6! PC_OUT[2]~output_o $end
$var wire 1 7! PC_OUT[1]~output_o $end
$var wire 1 8! PC_OUT[0]~output_o $end
$var wire 1 9! PC_LOAD~output_o $end
$var wire 1 :! PC_CLRN~output_o $end
$var wire 1 ;! R1_LOAD~output_o $end
$var wire 1 <! R2_LOAD~output_o $end
$var wire 1 =! MEMORY_LED_0[6]~output_o $end
$var wire 1 >! MEMORY_LED_0[5]~output_o $end
$var wire 1 ?! MEMORY_LED_0[4]~output_o $end
$var wire 1 @! MEMORY_LED_0[3]~output_o $end
$var wire 1 A! MEMORY_LED_0[2]~output_o $end
$var wire 1 B! MEMORY_LED_0[1]~output_o $end
$var wire 1 C! MEMORY_LED_0[0]~output_o $end
$var wire 1 D! MEMORY_LED_1[6]~output_o $end
$var wire 1 E! MEMORY_LED_1[5]~output_o $end
$var wire 1 F! MEMORY_LED_1[4]~output_o $end
$var wire 1 G! MEMORY_LED_1[3]~output_o $end
$var wire 1 H! MEMORY_LED_1[2]~output_o $end
$var wire 1 I! MEMORY_LED_1[1]~output_o $end
$var wire 1 J! MEMORY_LED_1[0]~output_o $end
$var wire 1 K! MEMORY_LED_2[6]~output_o $end
$var wire 1 L! MEMORY_LED_2[5]~output_o $end
$var wire 1 M! MEMORY_LED_2[4]~output_o $end
$var wire 1 N! MEMORY_LED_2[3]~output_o $end
$var wire 1 O! MEMORY_LED_2[2]~output_o $end
$var wire 1 P! MEMORY_LED_2[1]~output_o $end
$var wire 1 Q! MEMORY_LED_2[0]~output_o $end
$var wire 1 R! MEMORY_LED_3[6]~output_o $end
$var wire 1 S! MEMORY_LED_3[5]~output_o $end
$var wire 1 T! MEMORY_LED_3[4]~output_o $end
$var wire 1 U! MEMORY_LED_3[3]~output_o $end
$var wire 1 V! MEMORY_LED_3[2]~output_o $end
$var wire 1 W! MEMORY_LED_3[1]~output_o $end
$var wire 1 X! MEMORY_LED_3[0]~output_o $end
$var wire 1 Y! R1_LED[6]~output_o $end
$var wire 1 Z! R1_LED[5]~output_o $end
$var wire 1 [! R1_LED[4]~output_o $end
$var wire 1 \! R1_LED[3]~output_o $end
$var wire 1 ]! R1_LED[2]~output_o $end
$var wire 1 ^! R1_LED[1]~output_o $end
$var wire 1 _! R1_LED[0]~output_o $end
$var wire 1 `! R1_OUT[3]~output_o $end
$var wire 1 a! R1_OUT[2]~output_o $end
$var wire 1 b! R1_OUT[1]~output_o $end
$var wire 1 c! R1_OUT[0]~output_o $end
$var wire 1 d! ULA_REGISTER[3]~output_o $end
$var wire 1 e! ULA_REGISTER[2]~output_o $end
$var wire 1 f! ULA_REGISTER[1]~output_o $end
$var wire 1 g! ULA_REGISTER[0]~output_o $end
$var wire 1 h! R2_OUT[3]~output_o $end
$var wire 1 i! R2_OUT[2]~output_o $end
$var wire 1 j! R2_OUT[1]~output_o $end
$var wire 1 k! R2_OUT[0]~output_o $end
$var wire 1 l! R2_LED[6]~output_o $end
$var wire 1 m! R2_LED[5]~output_o $end
$var wire 1 n! R2_LED[4]~output_o $end
$var wire 1 o! R2_LED[3]~output_o $end
$var wire 1 p! R2_LED[2]~output_o $end
$var wire 1 q! R2_LED[1]~output_o $end
$var wire 1 r! R2_LED[0]~output_o $end
$var wire 1 s! CLK_FPGA~input_o $end
$var wire 1 t! INPUT_CLK~input_o $end
$var wire 1 u! RST_DEBOUNCER~input_o $end
$var wire 1 v! inst2|out_key~1_combout $end
$var wire 1 w! inst2|intermediate~1_combout $end
$var wire 1 x! inst2|intermediate~_emulated_q $end
$var wire 1 y! inst2|intermediate~0_combout $end
$var wire 1 z! inst2|Add0~45_sumout $end
$var wire 1 {! inst2|always0~0_combout $end
$var wire 1 |! inst2|Add0~46 $end
$var wire 1 }! inst2|Add0~17_sumout $end
$var wire 1 ~! inst2|Add0~18 $end
$var wire 1 !" inst2|Add0~13_sumout $end
$var wire 1 "" inst2|Add0~14 $end
$var wire 1 #" inst2|Add0~9_sumout $end
$var wire 1 $" inst2|Add0~10 $end
$var wire 1 %" inst2|Add0~5_sumout $end
$var wire 1 &" inst2|Add0~6 $end
$var wire 1 '" inst2|Add0~41_sumout $end
$var wire 1 (" inst2|Add0~42 $end
$var wire 1 )" inst2|Add0~37_sumout $end
$var wire 1 *" inst2|Add0~38 $end
$var wire 1 +" inst2|Add0~33_sumout $end
$var wire 1 ," inst2|Add0~34 $end
$var wire 1 -" inst2|Add0~29_sumout $end
$var wire 1 ." inst2|Add0~30 $end
$var wire 1 /" inst2|Add0~25_sumout $end
$var wire 1 0" inst2|Add0~26 $end
$var wire 1 1" inst2|Add0~21_sumout $end
$var wire 1 2" inst2|Add0~22 $end
$var wire 1 3" inst2|Add0~1_sumout $end
$var wire 1 4" inst2|out_key~5_combout $end
$var wire 1 5" inst2|out_key~6_combout $end
$var wire 1 6" inst2|Add0~2 $end
$var wire 1 7" inst2|Add0~61_sumout $end
$var wire 1 8" inst2|Add0~62 $end
$var wire 1 9" inst2|Add0~57_sumout $end
$var wire 1 :" inst2|Add0~58 $end
$var wire 1 ;" inst2|Add0~53_sumout $end
$var wire 1 <" inst2|Add0~54 $end
$var wire 1 =" inst2|Add0~49_sumout $end
$var wire 1 >" inst2|out_key~7_combout $end
$var wire 1 ?" inst2|out_key~8_combout $end
$var wire 1 @" inst2|out_key~3_combout $end
$var wire 1 A" inst2|out_key~_emulated_q $end
$var wire 1 B" inst2|out_key~2_combout $end
$var wire 1 C" inst|inst7~0_combout $end
$var wire 1 D" CLRN_GLOBAL~input_o $end
$var wire 1 E" inst10~combout $end
$var wire 1 F" inst|inst7~q $end
$var wire 1 G" inst|inst10~0_combout $end
$var wire 1 H" inst|inst10~q $end
$var wire 1 I" inst|inst21~combout $end
$var wire 1 J" inst|inst12~0_combout $end
$var wire 1 K" inst|inst12~q $end
$var wire 1 L" inst|inst14~0_combout $end
$var wire 1 M" inst|inst14~q $end
$var wire 1 N" inst|inst3|instA1~combout $end
$var wire 1 O" inst|inst3|instA14~combout $end
$var wire 1 P" inst|inst3|inst~1_combout $end
$var wire 1 Q" inst|inst3|inst~3_combout $end
$var wire 1 R" inst|inst3|inst~0_combout $end
$var wire 1 S" inst|inst3|inst~_emulated_q $end
$var wire 1 T" inst|inst3|inst~2_combout $end
$var wire 1 U" inst|inst2|instA1~combout $end
$var wire 1 V" inst|inst2|instA14~combout $end
$var wire 1 W" inst|inst2|inst~1_combout $end
$var wire 1 X" inst|inst2|inst~3_combout $end
$var wire 1 Y" inst|inst2|inst~0_combout $end
$var wire 1 Z" inst|inst2|inst~_emulated_q $end
$var wire 1 [" inst|inst2|inst~2_combout $end
$var wire 1 \" inst|inst1|instA1~combout $end
$var wire 1 ]" inst|inst1|instA14~combout $end
$var wire 1 ^" inst|inst1|inst~1_combout $end
$var wire 1 _" inst|inst1|inst~3_combout $end
$var wire 1 `" inst|inst1|inst~0_combout $end
$var wire 1 a" inst|inst1|inst~_emulated_q $end
$var wire 1 b" inst|inst1|inst~2_combout $end
$var wire 1 c" inst|inst|instA1~combout $end
$var wire 1 d" inst|inst|instA14~combout $end
$var wire 1 e" inst|inst|inst~1_combout $end
$var wire 1 f" inst|inst|inst~3_combout $end
$var wire 1 g" inst|inst|inst~0_combout $end
$var wire 1 h" inst|inst|inst~_emulated_q $end
$var wire 1 i" inst|inst|inst~2_combout $end
$var wire 1 j" inst19|inst8~0_combout $end
$var wire 1 k" inst19|inst8~1_combout $end
$var wire 1 l" inst19|inst8~2_combout $end
$var wire 1 m" inst19|inst6~combout $end
$var wire 1 n" inst19|inst7~combout $end
$var wire 1 o" inst23|inst|inst6~0_combout $end
$var wire 1 p" inst23|inst|inst5~0_combout $end
$var wire 1 q" inst23|inst|inst4~0_combout $end
$var wire 1 r" inst23|inst|inst3~0_combout $end
$var wire 1 s" inst23|inst|inst2~0_combout $end
$var wire 1 t" inst23|inst|inst1~0_combout $end
$var wire 1 u" inst23|inst|inst7~0_combout $end
$var wire 1 v" inst22|inst|inst6~0_combout $end
$var wire 1 w" inst22|inst|inst5~0_combout $end
$var wire 1 x" inst22|inst|inst4~0_combout $end
$var wire 1 y" inst22|inst|inst3~0_combout $end
$var wire 1 z" inst22|inst|inst2~0_combout $end
$var wire 1 {" inst22|inst|inst1~0_combout $end
$var wire 1 |" inst22|inst|inst7~0_combout $end
$var wire 1 }" inst21|inst|inst6~0_combout $end
$var wire 1 ~" inst21|inst|inst5~0_combout $end
$var wire 1 !# inst21|inst|inst4~0_combout $end
$var wire 1 "# inst21|inst|inst3~0_combout $end
$var wire 1 ## inst21|inst|inst2~0_combout $end
$var wire 1 $# inst21|inst|inst1~0_combout $end
$var wire 1 %# inst21|inst|inst7~0_combout $end
$var wire 1 &# inst20|inst|inst6~0_combout $end
$var wire 1 '# inst20|inst|inst5~0_combout $end
$var wire 1 (# inst20|inst|inst4~0_combout $end
$var wire 1 )# inst20|inst|inst3~0_combout $end
$var wire 1 *# inst20|inst|inst2~0_combout $end
$var wire 1 +# inst20|inst|inst1~0_combout $end
$var wire 1 ,# inst20|inst|inst7~0_combout $end
$var wire 1 -# inst14|inst1~combout $end
$var wire 1 .# inst15|inst1~combout $end
$var wire 1 /# inst4~combout $end
$var wire 1 0# inst15|inst3~q $end
$var wire 1 1# inst5|LPM_MUX_component|auto_generated|l1_w1_n0_mux_dataout~0_combout $end
$var wire 1 2# inst15|inst~q $end
$var wire 1 3# inst11|inst1|LPM_MUX_component|auto_generated|l1_w0_n0_mux_dataout~0_combout $end
$var wire 1 4# inst14|inst~q $end
$var wire 1 5# inst11|inst2|inst|inst4~combout $end
$var wire 1 6# inst11|inst1|LPM_MUX_component|auto_generated|l1_w1_n0_mux_dataout~0_combout $end
$var wire 1 7# inst11|inst1|LPM_MUX_component|auto_generated|l1_w1_n0_mux_dataout~1_combout $end
$var wire 1 8# inst14|inst3~q $end
$var wire 1 9# inst11|inst2|inst2|inst6~combout $end
$var wire 1 :# inst15|inst4~q $end
$var wire 1 ;# inst11|inst2|inst3|inst5~0_combout $end
$var wire 1 <# inst11|inst1|LPM_MUX_component|auto_generated|l1_w2_n0_mux_dataout~0_combout $end
$var wire 1 =# inst14|inst4~q $end
$var wire 1 ># inst15|inst5~q $end
$var wire 1 ?# inst5|LPM_MUX_component|auto_generated|l1_w3_n0_mux_dataout~0_combout $end
$var wire 1 @# inst5|LPM_MUX_component|auto_generated|l1_w2_n0_mux_dataout~0_combout $end
$var wire 1 A# inst11|inst2|inst3|inst8~0_combout $end
$var wire 1 B# inst11|inst1|LPM_MUX_component|auto_generated|l1_w3_n0_mux_dataout~0_combout $end
$var wire 1 C# inst14|inst5~q $end
$var wire 1 D# inst25|inst|inst6~0_combout $end
$var wire 1 E# inst25|inst|inst5~0_combout $end
$var wire 1 F# inst25|inst|inst4~0_combout $end
$var wire 1 G# inst25|inst|inst3~0_combout $end
$var wire 1 H# inst25|inst|inst2~0_combout $end
$var wire 1 I# inst25|inst|inst1~0_combout $end
$var wire 1 J# inst25|inst|inst7~0_combout $end
$var wire 1 K# inst5|LPM_MUX_component|auto_generated|l1_w0_n0_mux_dataout~0_combout $end
$var wire 1 L# inst24|inst|inst6~0_combout $end
$var wire 1 M# inst24|inst|inst5~0_combout $end
$var wire 1 N# inst24|inst|inst4~0_combout $end
$var wire 1 O# inst24|inst|inst3~0_combout $end
$var wire 1 P# inst24|inst|inst2~0_combout $end
$var wire 1 Q# inst24|inst|inst1~0_combout $end
$var wire 1 R# inst24|inst|inst7~0_combout $end
$var wire 1 S# inst1|altsyncram_component|auto_generated|q_a [15] $end
$var wire 1 T# inst1|altsyncram_component|auto_generated|q_a [14] $end
$var wire 1 U# inst1|altsyncram_component|auto_generated|q_a [13] $end
$var wire 1 V# inst1|altsyncram_component|auto_generated|q_a [12] $end
$var wire 1 W# inst1|altsyncram_component|auto_generated|q_a [11] $end
$var wire 1 X# inst1|altsyncram_component|auto_generated|q_a [10] $end
$var wire 1 Y# inst1|altsyncram_component|auto_generated|q_a [9] $end
$var wire 1 Z# inst1|altsyncram_component|auto_generated|q_a [8] $end
$var wire 1 [# inst1|altsyncram_component|auto_generated|q_a [7] $end
$var wire 1 \# inst1|altsyncram_component|auto_generated|q_a [6] $end
$var wire 1 ]# inst1|altsyncram_component|auto_generated|q_a [5] $end
$var wire 1 ^# inst1|altsyncram_component|auto_generated|q_a [4] $end
$var wire 1 _# inst1|altsyncram_component|auto_generated|q_a [3] $end
$var wire 1 `# inst1|altsyncram_component|auto_generated|q_a [2] $end
$var wire 1 a# inst1|altsyncram_component|auto_generated|q_a [1] $end
$var wire 1 b# inst1|altsyncram_component|auto_generated|q_a [0] $end
$var wire 1 c# inst2|counter [15] $end
$var wire 1 d# inst2|counter [14] $end
$var wire 1 e# inst2|counter [13] $end
$var wire 1 f# inst2|counter [12] $end
$var wire 1 g# inst2|counter [11] $end
$var wire 1 h# inst2|counter [10] $end
$var wire 1 i# inst2|counter [9] $end
$var wire 1 j# inst2|counter [8] $end
$var wire 1 k# inst2|counter [7] $end
$var wire 1 l# inst2|counter [6] $end
$var wire 1 m# inst2|counter [5] $end
$var wire 1 n# inst2|counter [4] $end
$var wire 1 o# inst2|counter [3] $end
$var wire 1 p# inst2|counter [2] $end
$var wire 1 q# inst2|counter [1] $end
$var wire 1 r# inst2|counter [0] $end
$var wire 1 s# inst1|altsyncram_component|auto_generated|ram_block1a10_PORTADATAOUT_bus [0] $end
$var wire 1 t# inst1|altsyncram_component|auto_generated|ram_block1a11_PORTADATAOUT_bus [0] $end
$var wire 1 u# inst1|altsyncram_component|auto_generated|ram_block1a15_PORTADATAOUT_bus [0] $end
$var wire 1 v# inst1|altsyncram_component|auto_generated|ram_block1a14_PORTADATAOUT_bus [0] $end
$var wire 1 w# inst1|altsyncram_component|auto_generated|ram_block1a13_PORTADATAOUT_bus [0] $end
$var wire 1 x# inst1|altsyncram_component|auto_generated|ram_block1a12_PORTADATAOUT_bus [0] $end
$var wire 1 y# inst1|altsyncram_component|auto_generated|ram_block1a9_PORTADATAOUT_bus [0] $end
$var wire 1 z# inst1|altsyncram_component|auto_generated|ram_block1a8_PORTADATAOUT_bus [0] $end
$var wire 1 {# inst1|altsyncram_component|auto_generated|ram_block1a7_PORTADATAOUT_bus [0] $end
$var wire 1 |# inst1|altsyncram_component|auto_generated|ram_block1a6_PORTADATAOUT_bus [0] $end
$var wire 1 }# inst1|altsyncram_component|auto_generated|ram_block1a5_PORTADATAOUT_bus [0] $end
$var wire 1 ~# inst1|altsyncram_component|auto_generated|ram_block1a4_PORTADATAOUT_bus [0] $end
$var wire 1 !$ inst1|altsyncram_component|auto_generated|ram_block1a3_PORTADATAOUT_bus [0] $end
$var wire 1 "$ inst1|altsyncram_component|auto_generated|ram_block1a2_PORTADATAOUT_bus [0] $end
$var wire 1 #$ inst1|altsyncram_component|auto_generated|ram_block1a1_PORTADATAOUT_bus [0] $end
$var wire 1 $$ inst1|altsyncram_component|auto_generated|ram_block1a0_PORTADATAOUT_bus [0] $end
$upscope $end
$upscope $end
$enddefinitions $end
#0
$dumpvars
0!
0"
0#
0$
04
03
02
01
00
0/
0.
0-
0,
0+
0*
0)
0(
0'
0&
0%
0;
0:
09
08
07
06
15
0B
0A
0@
0?
0>
0=
1<
0I
0H
0G
0F
0E
0D
1C
0P
0O
0N
0M
0L
0K
1J
1Q
0R
0Z
0Y
0X
0W
0V
0U
0T
0S
0a
0`
0_
0^
0]
0\
1[
0b
0f
0e
0d
0c
0m
0l
0k
0j
0i
0h
1g
0n
0r
0q
0p
0o
1s
0w
0v
0u
0t
0x
1y
xz
1{
1|
1}
1~
0!!
0"!
0#!
0$!
0%!
0&!
0'!
0(!
0)!
0*!
0+!
0,!
0-!
0.!
0/!
00!
01!
02!
03!
04!
05!
06!
07!
08!
09!
1:!
0;!
0<!
1=!
0>!
0?!
0@!
0A!
0B!
0C!
1D!
0E!
0F!
0G!
0H!
0I!
0J!
1K!
0L!
0M!
0N!
0O!
0P!
0Q!
1R!
0S!
0T!
0U!
0V!
0W!
0X!
1Y!
0Z!
0[!
0\!
0]!
0^!
0_!
0`!
0a!
0b!
0c!
0d!
0e!
0f!
0g!
0h!
0i!
0j!
0k!
1l!
0m!
0n!
0o!
0p!
0q!
0r!
0s!
0t!
0u!
0v!
0w!
0x!
0y!
1z!
0{!
0|!
0}!
0~!
0!"
0""
0#"
0$"
0%"
0&"
0'"
0("
0)"
0*"
0+"
0,"
0-"
0."
0/"
00"
01"
02"
03"
04"
05"
06"
07"
08"
09"
0:"
0;"
0<"
0="
0>"
1?"
0@"
0A"
0B"
0C"
0D"
1E"
0F"
0G"
0H"
0I"
0J"
0K"
0L"
0M"
0N"
1O"
0P"
0Q"
1R"
0S"
0T"
0U"
1V"
0W"
0X"
1Y"
0Z"
0["
0\"
1]"
0^"
0_"
1`"
0a"
0b"
0c"
1d"
0e"
1f"
1g"
0h"
0i"
0j"
0k"
0l"
0m"
0n"
0o"
1p"
1q"
1r"
1s"
1t"
1u"
0v"
1w"
1x"
1y"
1z"
1{"
1|"
0}"
1~"
1!#
1"#
1##
1$#
1%#
0&#
1'#
1(#
1)#
1*#
1+#
1,#
0-#
0.#
1/#
00#
01#
02#
03#
04#
05#
06#
07#
08#
09#
0:#
0;#
0<#
0=#
0>#
0?#
0@#
0A#
0B#
0C#
0D#
1E#
1F#
1G#
1H#
1I#
1J#
0K#
0L#
1M#
1N#
1O#
1P#
1Q#
1R#
0b#
0a#
0`#
0_#
0^#
0]#
0\#
0[#
0Z#
0Y#
0X#
0W#
0V#
0U#
0T#
0S#
0r#
0q#
0p#
0o#
0n#
0m#
0l#
0k#
0j#
0i#
0h#
0g#
0f#
0e#
0d#
0c#
0s#
0t#
0u#
0v#
0w#
0x#
0y#
0z#
0{#
0|#
0}#
0~#
0!$
0"$
0#$
0$$
$end
#15000
1#
1t!
1{!
1y!
1v!
1B"
1w!
0{!
0w!
#20000
1"
1D"
0/#
0d"
0]"
0V"
0O"
0E"
0R"
0Y"
0`"
0g"
#30000
0#
0t!
1{!
0y!
0v!
0B"
1w!
0{!
0w!
#30001
1"$
1v#
1w#
1`#
1T#
1U#
1#!
1"!
1.!
0+#
1&#
1;#
0u"
0r"
0q"
1o"
12
1&
1'
1m"
1;!
0=!
1?!
1@!
1C!
0R!
1W!
1O
0J
1;
18
17
05
1b
1<#
#45000
1#
1t!
1{!
1y!
1v!
1B"
1w!
0{!
0w!
1-#
1h"
1=#
1a!
0J#
0G#
0F#
1D#
1d
1i"
18!
0Y!
1[!
1\!
1_!
1a
1^
1]
0[
1Z
0f"
1_"
#60000
0#
0t!
1{!
0y!
0v!
0B"
1w!
0{!
0w!
0-#
#60001
0"$
1#$
1u#
0v#
0w#
1x#
1z#
0`#
1a#
1S#
0T#
0U#
1V#
1Z#
1(!
1$!
0#!
0"!
1!!
1/!
0.!
0%#
0"#
0!#
0~"
1+#
0(#
1u"
0s"
1r"
1q"
0p"
02
13
1%
0&
0'
1(
1,
0m"
1@#
1e!
0;!
1>!
0?!
0@!
1A!
0C!
1T!
0W!
1L!
1M!
1N!
1Q!
1I
1F
1E
1D
0O
1L
0;
19
08
07
16
0b
1u
#75000
1#
1t!
1{!
1y!
1v!
1B"
1w!
0{!
0w!
0h"
1a"
1b"
0i"
08!
17!
1Y
0Z
1f"
#90000
0#
0t!
1{!
0y!
0v!
0B"
1w!
0{!
0w!
#90001
0#$
1$$
0u#
1v#
1w#
0x#
1y#
0z#
0a#
1b#
0S#
1T#
1U#
0V#
1Y#
0Z#
0(!
1'!
0$!
1#!
1"!
0!!
10!
0/!
1%#
0##
1"#
1!#
1}"
19#
15#
0;#
0+#
1(#
0u"
1s"
0r"
0q"
0o"
03
14
0%
1&
1'
0(
1+
0,
13#
0@#
0e!
1=!
1?!
1@!
0A!
1C!
0T!
1W!
0K!
0M!
0N!
1O!
0Q!
1A#
0I
1G
0F
0E
0C
1O
0L
1;
09
18
17
15
0u
17#
1B#
#105000
1#
1t!
1{!
1y!
1v!
1B"
1w!
0{!
0w!
1h"
1i"
18!
1Z
0f"
0_"
1X"
#120000
0#
0t!
1{!
0y!
0v!
0B"
1w!
0{!
0w!
#120001
1"$
1z#
1`#
1Z#
1(!
1.!
1##
0!#
1;#
16#
1u"
0t"
1r"
1p"
1o"
12
1,
0B#
0<#
07#
03#
0=!
0>!
0@!
1B!
0C!
1M!
0O!
0G
1E
0;
1:
08
06
05
17#
#135000
1#
1t!
1{!
1y!
1v!
1B"
1w!
0{!
0w!
0h"
0a"
1Z"
1["
0b"
0i"
08!
07!
16!
1X
0Y
0Z
1f"
#150000
0#
0t!
1{!
0y!
0v!
0B"
1w!
0{!
0w!
#150001
0"$
1#$
0$$
1u#
0v#
0w#
1x#
0y#
0z#
0`#
1a#
0b#
1S#
0T#
0U#
1V#
0Y#
0Z#
0(!
0'!
1$!
0#!
0"!
1!!
00!
1/!
0.!
1!#
1~"
0}"
0A#
09#
06#
05#
1+#
0(#
1t"
0s"
1q"
0p"
02
13
04
1%
0&
0'
1(
0+
0,
1B#
07#
1n"
1@#
1e!
1<!
1>!
0?!
1A!
0B!
1T!
0W!
1K!
0L!
0M!
0E
0D
1C
0O
1L
0:
19
07
16
1n
1u
1<#
17#
0B#
#165000
1#
1t!
1{!
1y!
1v!
1B"
1w!
0{!
0w!
1.#
1h"
1:#
10#
1j!
1i!
0Q#
1L#
1p
1q
1i"
18!
0l!
1q!
1l
0g
1Z
0f"
1_"
#180000
0#
0t!
1{!
0y!
0v!
0B"
1w!
0{!
0w!
0.#
#180001
0u#
1v#
1w#
0x#
0S#
1T#
1U#
0V#
0$!
1#!
1"!
0!!
19#
0+#
1(#
0%
1&
1'
0(
11#
0n"
1m"
1;!
0<!
1f!
0T!
1W!
1A#
1O
0L
1v
0n
1b
0<#
07#
1B#
#195000
1#
1t!
1{!
1y!
1v!
1B"
1w!
0{!
0w!
1-#
0h"
1a"
1C#
0=#
0a!
1`!
1J#
1G#
1F#
1c
0d
1b"
0i"
08!
17!
0[!
0\!
0_!
0a
0^
0]
1Y
0Z
1f"
#210000
0#
0t!
1{!
0y!
0v!
0B"
1w!
0{!
0w!
0-#
#210001
1$$
1u#
0v#
0w#
1x#
1b#
1S#
0T#
0U#
1V#
1$!
0#!
0"!
1!!
10!
0;#
09#
1+#
0(#
16#
1s"
0q"
14
1%
0&
0'
1(
0@#
1?#
13#
01#
1n"
0m"
0;!
1<!
0f!
1d!
0e!
1?!
0A!
1T!
0W!
0A#
0O
1L
09
17
0u
1t
0v
1n
0b
17#
0B#
1B#
#225000
1#
1t!
1{!
1y!
1v!
1B"
1w!
0{!
0w!
1.#
1h"
1>#
0:#
12#
1k!
0i!
1h!
0R#
1o
0p
1r
1i"
18!
1r!
1m
1Z
0f"
0_"
0X"
1Q"
#240000
0#
0t!
1{!
0y!
0v!
0B"
1w!
0{!
0w!
0.#
#240001
0#$
0$$
1s#
0u#
0x#
0a#
0b#
1X#
0S#
0V#
0$!
0!!
1&!
00!
0/!
19#
1(#
0&#
1/#
0%#
0"#
0!#
1}"
1j"
06#
1q"
1p"
0o"
03
04
1*
0%
0(
1K#
11#
0n"
07#
0<!
1f!
1g!
1=!
0>!
0?!
0~
0K!
1M!
1N!
1Q!
1R!
0T!
0L
1J
1I
1F
1E
0C
0s
07
06
15
1w
1v
0n
17#
00#
02#
0>#
0C#
0`!
0h!
0k!
0j!
0D#
1R#
1Q#
0L#
09#
0q
0r
0o
0c
0?#
0K#
03#
01#
0f!
0g!
0d!
1l!
0q!
0r!
1Y!
1[
0m
0l
1g
0t
0w
0v
07#
0B#
#255000
1#
1t!
1{!
1y!
1v!
1B"
1w!
0{!
0w!
0h"
0a"
0Z"
1S"
1T"
0["
0b"
0i"
08!
07!
06!
15!
1W
0X
0Y
0Z
1f"
#270000
0#
0t!
1{!
0y!
0v!
0B"
1w!
0{!
0w!
#270001
1!$
1"$
1t#
1$$
1_#
1`#
1W#
1b#
10!
1%!
1.!
1-!
16#
0u"
0p"
1o"
1c"
0/#
1%#
0$#
0##
1"#
1!#
0}"
0j"
1]"
1U"
1N"
1;#
11
12
1)
14
13#
1k"
1B#
19!
1~
1K!
0M!
0N!
1O!
1P!
0Q!
0=!
1>!
1C!
1R"
1P"
1Y"
1W"
1`"
1g"
1e"
1;
16
05
0I
1H
1G
0F
0E
1C
1s
1R
1<#
1["
1i"
18!
16!
1X
1Z
0Q"
1_"
0S"
