ControlUnit/simulation/qsim/ControlUnit.msim.vcd
$comment
	File created using the following command:
		vcd file ControlUnit.msim.vcd -direction
$end
$date
	Tue Oct 04 16:08:09 2022
$end
$version
	ModelSim Version 10.5b
$end
$timescale
	1ps
$end

$scope module ControlUnit_vlg_vec_tst $end
$var reg 16 ! MEM_CONTENTS [15:0] $end
$var reg 4 " REG_1 [3:0] $end
$var reg 4 # REG_2 [3:0] $end
$var wire 1 $ J [1] $end
$var wire 1 % J [0] $end
$var wire 1 & JN [1] $end
$var wire 1 ' JN [0] $end
$var wire 1 ( PC_CLRN $end
$var wire 1 ) PC_LOAD $end
$var wire 1 * REG_1_CLRN $end
$var wire 1 + REG_1_EN $end
$var wire 1 , REG_1_LOAD $end
$var wire 1 - REG_2_CLRN $end
$var wire 1 . REG_2_EN $end
$var wire 1 / REG_2_LOAD $end
$var wire 1 0 ULA_A $end
$var wire 1 1 ULA_B $end

$scope module i1 $end
$var wire 1 2 gnd $end
$var wire 1 3 vcc $end
$var wire 1 4 unknown $end
$var tri1 1 5 devclrn $end
$var tri1 1 6 devpor $end
$var tri1 1 7 devoe $end
$var wire 1 8 MEM_CONTENTS[15]~input_o $end
$var wire 1 9 MEM_CONTENTS[14]~input_o $end
$var wire 1 : MEM_CONTENTS[13]~input_o $end
$var wire 1 ; MEM_CONTENTS[12]~input_o $end
$var wire 1 < MEM_CONTENTS[9]~input_o $end
$var wire 1 = MEM_CONTENTS[8]~input_o $end
$var wire 1 > MEM_CONTENTS[7]~input_o $end
$var wire 1 ? MEM_CONTENTS[6]~input_o $end
$var wire 1 @ MEM_CONTENTS[5]~input_o $end
$var wire 1 A MEM_CONTENTS[4]~input_o $end
$var wire 1 B MEM_CONTENTS[3]~input_o $end
$var wire 1 C MEM_CONTENTS[2]~input_o $end
$var wire 1 D MEM_CONTENTS[1]~input_o $end
$var wire 1 E MEM_CONTENTS[0]~input_o $end
$var wire 1 F REG_1[3]~input_o $end
$var wire 1 G REG_1[2]~input_o $end
$var wire 1 H REG_1[1]~input_o $end
$var wire 1 I REG_1[0]~input_o $end
$var wire 1 J REG_2[3]~input_o $end
$var wire 1 K REG_2[2]~input_o $end
$var wire 1 L REG_2[1]~input_o $end
$var wire 1 M REG_2[0]~input_o $end
$var wire 1 N REG_1_LOAD~output_o $end
$var wire 1 O REG_1_EN~output_o $end
$var wire 1 P REG_1_CLRN~output_o $end
$var wire 1 Q REG_2_LOAD~output_o $end
$var wire 1 R REG_2_EN~output_o $end
$var wire 1 S REG_2_CLRN~output_o $end
$var wire 1 T PC_LOAD~output_o $end
$var wire 1 U PC_CLRN~output_o $end
$var wire 1 V ULA_A~output_o $end
$var wire 1 W ULA_B~output_o $end
$var wire 1 X J[1]~output_o $end
$var wire 1 Y J[0]~output_o $end
$var wire 1 Z JN[1]~output_o $end
$var wire 1 [ JN[0]~output_o $end
$var wire 1 \ MEM_CONTENTS[11]~input_o $end
$var wire 1 ] MEM_CONTENTS[10]~input_o $end
$upscope $end
$upscope $end
$enddefinitions $end
#0
$dumpvars
bx00xxxxxxxxxx !
bx "
bx #
0%
0$
1'
1&
0(
0)
0*
0+
0,
0-
0.
0/
00
01
02
13
x4
15
16
17
x8
x9
x:
x;
x<
x=
x>
x?
x@
xA
xB
xC
xD
xE
xF
xG
xH
xI
xJ
xK
xL
xM
0N
0O
0P
0Q
0R
0S
0T
0U
0V
0W
0X
0Y
1Z
1[
0\
0]
$end
#5000
bx01xxxxxxxxxx !
1]
0[
1Y
1%
0'
#10000
bx11xxxxxxxxxx !
bx10xxxxxxxxxx !
0]
1\
0Z
1[
1X
0Y
0%
1$
1'
0&
#15000
bx11xxxxxxxxxx !
1]
0[
1Y
1%
0'
#20000
bx01xxxxxxxxxx !
bx00xxxxxxxxxx !
0]
0\
1Z
1[
0X
0Y
0%
0$
1'
1&
#25000
bx01xxxxxxxxxx !
1]
0[
1Y
1%
0'
#30000
bx11xxxxxxxxxx !
bx10xxxxxxxxxx !
0]
1\
0Z
1[
1X
0Y
0%
1$
1'
0&
#35000
bx11xxxxxxxxxx !
1]
0[
1Y
1%
0'
#40000
bx01xxxxxxxxxx !
bx00xxxxxxxxxx !
0]
0\
1Z
1[
0X
0Y
0%
0$
1'
1&
#45000
bx01xxxxxxxxxx !
1]
0[
1Y
1%
0'
#50000
bx11xxxxxxxxxx !
bx10xxxxxxxxxx !
0]
1\
0Z
1[
1X
0Y
0%
1$
1'
0&
#55000
bx11xxxxxxxxxx !
1]
0[
1Y
1%
0'
#60000
bx01xxxxxxxxxx !
bx00xxxxxxxxxx !
0]
0\
1Z
1[
0X
0Y
0%
0$
1'
1&
#65000
bx01xxxxxxxxxx !
1]
0[
1Y
1%
0'
#70000
bx11xxxxxxxxxx !
bx10xxxxxxxxxx !
0]
1\
0Z
1[
1X
0Y
0%
1$
1'
0&
#75000
bx11xxxxxxxxxx !
1]
0[
1Y
1%
0'
#80000
bx01xxxxxxxxxx !
bx00xxxxxxxxxx !
0]
0\
1Z
1[
0X
0Y
0%
0$
1'
1&
#85000
bx01xxxxxxxxxx !
1]
0[
1Y
1%
0'
#90000
bx11xxxxxxxxxx !
bx10xxxxxxxxxx !
0]
1\
0Z
1[
1X
0Y
0%
1$
1'
0&
#95000
bx11xxxxxxxxxx !
1]
0[
1Y
1%
0'
#100000
bx01xxxxxxxxxx !
bx00xxxxxxxxxx !
0]
0\
1Z
1[
0X
0Y
0%
0$
1'
1&
#105000
bx01xxxxxxxxxx !
1]
0[
1Y
1%
0'
#110000
bx11xxxxxxxxxx !
bx10xxxxxxxxxx !
0]
1\
0Z
1[
1X
0Y
0%
1$
1'
0&
#115000
bx11xxxxxxxxxx !
1]
0[
1Y
1%
0'
#120000
bx01xxxxxxxxxx !
bx00xxxxxxxxxx !
0]
0\
1Z
1[
0X
0Y
0%
0$
1'
1&
#125000
bx01xxxxxxxxxx !
1]
0[
1Y
1%
0'
#130000
bx11xxxxxxxxxx !
bx10xxxxxxxxxx !
0]
1\
0Z
1[
1X
0Y
0%
1$
1'
0&
#135000
bx11xxxxxxxxxx !
1]
0[
1Y
1%
0'
#140000
bx01xxxxxxxxxx !
bx00xxxxxxxxxx !
0]
0\
1Z
1[
0X
0Y
0%
0$
1'
1&
#145000
bx01xxxxxxxxxx !
1]
0[
1Y
1%
0'
#150000
bx11xxxxxxxxxx !
bx10xxxxxxxxxx !
0]
1\
0Z
1[
1X
0Y
0%
1$
1'
0&
#155000
bx11xxxxxxxxxx !
1]
0[
1Y
1%
0'
#160000
bx01xxxxxxxxxx !
bx00xxxxxxxxxx !
0]
0\
1Z
1[
0X
0Y
0%
0$
1'
1&
#165000
bx01xxxxxxxxxx !
1]
0[
1Y
1%
0'
#170000
bx11xxxxxxxxxx !
bx10xxxxxxxxxx !
0]
1\
0Z
1[
1X
0Y
0%
1$
1'
0&
#175000
bx11xxxxxxxxxx !
1]
0[
1Y
1%
0'
#180000
bx01xxxxxxxxxx !
bx00xxxxxxxxxx !
0]
0\
1Z
1[
0X
0Y
0%
0$
1'
1&
#185000
bx01xxxxxxxxxx !
1]
0[
1Y
1%
0'
#190000
bx11xxxxxxxxxx !
bx10xxxxxxxxxx !
0]
1\
0Z
1[
1X
0Y
0%
1$
1'
0&
#195000
bx11xxxxxxxxxx !
1]
0[
1Y
1%
0'
#200000
bx01xxxxxxxxxx !
bx00xxxxxxxxxx !
0]
0\
1Z
1[
0X
0Y
0%
0$
1'
1&
#205000
bx01xxxxxxxxxx !
1]
0[
1Y
1%
0'
#210000
bx11xxxxxxxxxx !
bx10xxxxxxxxxx !
0]
1\
0Z
1[
1X
0Y
0%
1$
1'
0&
#215000
bx11xxxxxxxxxx !
1]
0[
1Y
1%
0'
#220000
bx01xxxxxxxxxx !
bx00xxxxxxxxxx !
0]
0\
1Z
1[
0X
0Y
0%
0$
1'
1&
#225000
bx01xxxxxxxxxx !
1]
0[
1Y
1%
0'
#230000
bx11xxxxxxxxxx !
bx10xxxxxxxxxx !
0]
1\
0Z
1[
1X
0Y
0%
1$
1'
0&
#235000
bx11xxxxxxxxxx !
1]
0[
1Y
1%
0'
#240000
bx01xxxxxxxxxx !
bx00xxxxxxxxxx !
0]
0\
1Z
1[
0X
0Y
0%
0$
1'
1&
#245000
bx01xxxxxxxxxx !
1]
0[
1Y
1%
0'
#250000
bx11xxxxxxxxxx !
bx10xxxxxxxxxx !
0]
1\
0Z
1[
1X
0Y
0%
1$
1'
0&
#255000
bx11xxxxxxxxxx !
1]
0[
1Y
1%
0'
#260000
bx01xxxxxxxxxx !
bx00xxxxxxxxxx !
0]
0\
1Z
1[
0X
0Y
0%
0$
1'
1&
#265000
bx01xxxxxxxxxx !
1]
0[
1Y
1%
0'
#270000
bx11xxxxxxxxxx !
bx10xxxxxxxxxx !
0]
1\
0Z
1[
1X
0Y
0%
1$
1'
0&
#275000
bx11xxxxxxxxxx !
1]
0[
1Y
1%
0'
#280000
bx01xxxxxxxxxx !
bx00xxxxxxxxxx !
0]
0\
1Z
1[
0X
0Y
0%
0$
1'
1&
#285000
bx01xxxxxxxxxx !
1]
0[
1Y
1%
0'
#290000
bx11xxxxxxxxxx !
bx10xxxxxxxxxx !
0]
1\
0Z
1[
1X
0Y
0%
1$
1'
0&
#295000
bx11xxxxxxxxxx !
1]
0[
1Y
1%
0'
#300000
bx01xxxxxxxxxx !
bx00xxxxxxxxxx !
0]
0\
1Z
1[
0X
0Y
0%
0$
1'
1&
#305000
bx01xxxxxxxxxx !
1]
0[
1Y
1%
0'
#310000
bx11xxxxxxxxxx !
bx10xxxxxxxxxx !
0]
1\
0Z
1[
1X
0Y
0%
1$
1'
0&
#315000
bx11xxxxxxxxxx !
1]
0[
1Y
1%
0'
#320000
bx01xxxxxxxxxx !
bx00xxxxxxxxxx !
0]
0\
1Z
1[
0X
0Y
0%
0$
1'
1&
#325000
bx01xxxxxxxxxx !
1]
0[
1Y
1%
0'
#330000
bx11xxxxxxxxxx !
bx10xxxxxxxxxx !
0]
1\
0Z
1[
1X
0Y
0%
1$
1'
0&
#335000
bx11xxxxxxxxxx !
1]
0[
1Y
1%
0'
#340000
bx01xxxxxxxxxx !
bx00xxxxxxxxxx !
0]
0\
1Z
1[
0X
0Y
0%
0$
1'
1&
#345000
bx01xxxxxxxxxx !
1]
0[
1Y
1%
0'
#350000
bx11xxxxxxxxxx !
bx10xxxxxxxxxx !
0]
1\
0Z
1[
1X
0Y
0%
1$
1'
0&
#355000
bx11xxxxxxxxxx !
1]
0[
1Y
1%
0'
#360000
bx01xxxxxxxxxx !
bx00xxxxxxxxxx !
0]
0\
1Z
1[
0X
0Y
0%
0$
1'
1&
#365000
bx01xxxxxxxxxx !
1]
0[
1Y
1%
0'
#370000
bx11xxxxxxxxxx !
bx10xxxxxxxxxx !
0]
1\
0Z
1[
1X
0Y
0%
1$
1'
0&
#375000
bx11xxxxxxxxxx !
1]
0[
1Y
1%
0'
#380000
bx01xxxxxxxxxx !
bx00xxxxxxxxxx !
0]
0\
1Z
1[
0X
0Y
0%
0$
1'
1&
#385000
bx01xxxxxxxxxx !
1]
0[
1Y
1%
0'
#390000
bx11xxxxxxxxxx !
bx10xxxxxxxxxx !
0]
1\
0Z
1[
1X
0Y
0%
1$
1'
0&
#395000
bx11xxxxxxxxxx !
1]
0[
1Y
1%
0'
#400000
bx01xxxxxxxxxx !
bx00xxxxxxxxxx !
0]
0\
1Z
1[
0X
0Y
0%
0$
1'
1&
#405000
bx01xxxxxxxxxx !
1]
0[
1Y
1%
0'
#410000
bx11xxxxxxxxxx !
bx10xxxxxxxxxx !
0]
1\
0Z
1[
1X
0Y
0%
1$
1'
0&
#415000
bx11xxxxxxxxxx !
1]
0[
1Y
1%
0'
#420000
bx01xxxxxxxxxx !
bx00xxxxxxxxxx !
0]
0\
1Z
1[
0X
0Y
0%
0$
1'
1&
#425000
bx01xxxxxxxxxx !
1]
0[
1Y
1%
0'
#430000
bx11xxxxxxxxxx !
bx10xxxxxxxxxx !
0]
1\
0Z
1[
1X
0Y
0%
1$
1'
0&
#435000
bx11xxxxxxxxxx !
1]
0[
1Y
1%
0'
#440000
bx01xxxxxxxxxx !
bx00xxxxxxxxxx !
0]
0\
1Z
1[
0X
0Y
0%
0$
1'
1&
#445000
bx01xxxxxxxxxx !
1]
0[
1Y
1%
0'
#450000
bx11xxxxxxxxxx !
bx10xxxxxxxxxx !
0]
1\
0Z
1[
1X
0Y
0%
1$
1'
0&
#455000
bx11xxxxxxxxxx !
1]
0[
1Y
1%
0'
#460000
bx01xxxxxxxxxx !
bx00xxxxxxxxxx !
0]
0\
1Z
1[
0X
0Y
0%
0$
1'
1&
#465000
bx01xxxxxxxxxx !
1]
0[
1Y
1%
0'
#470000
bx11xxxxxxxxxx !
bx10xxxxxxxxxx !
0]
1\
0Z
1[
1X
0Y
0%
1$
1'
0&
#475000
bx11xxxxxxxxxx !
1]
0[
1Y
1%
0'
#480000
bx01xxxxxxxxxx !
bx00xxxxxxxxxx !
0]
0\
1Z
1[
0X
0Y
0%
0$
1'
1&
#485000
bx01xxxxxxxxxx !
1]
0[
1Y
1%
0'
#490000
bx11xxxxxxxxxx !
bx10xxxxxxxxxx !
0]
1\
0Z
1[
1X
0Y
0%
1$
1'
0&
#495000
bx11xxxxxxxxxx !
1]
0[
1Y
1%
0'
#500000
bx01xxxxxxxxxx !
bx00xxxxxxxxxx !
0]
0\
1Z
1[
0X
0Y
0%
0$
1'
1&
#505000
bx01xxxxxxxxxx !
1]
0[
1Y
1%
0'
#510000
bx11xxxxxxxxxx !
bx10xxxxxxxxxx !
0]
1\
0Z
1[
1X
0Y
0%
1$
1'
0&
#515000
bx11xxxxxxxxxx !
1]
0[
1Y
1%
0'
#520000
bx01xxxxxxxxxx !
bx00xxxxxxxxxx !
0]
0\
1Z
1[
0X
0Y
0%
0$
1'
1&
#525000
bx01xxxxxxxxxx !
1]
0[
1Y
1%
0'
#530000
bx11xxxxxxxxxx !
bx10xxxxxxxxxx !
0]
1\
0Z
1[
1X
0Y
0%
1$
1'
0&
#535000
bx11xxxxxxxxxx !
1]
0[
1Y
1%
0'
#540000
bx01xxxxxxxxxx !
bx00xxxxxxxxxx !
0]
0\
1Z
1[
0X
0Y
0%
0$
1'
1&
#545000
bx01xxxxxxxxxx !
1]
0[
1Y
1%
0'
#550000
bx11xxxxxxxxxx !
bx10xxxxxxxxxx !
0]
1\
0Z
1[
1X
0Y
0%
1$
1'
0&
#555000
bx11xxxxxxxxxx !
1]
0[
1Y
1%
0'
#560000
bx01xxxxxxxxxx !
bx00xxxxxxxxxx !
0]
0\
1Z
1[
0X
0Y
0%
0$
1'
1&
#565000
bx01xxxxxxxxxx !
1]
0[
1Y
1%
0'
#570000
bx11xxxxxxxxxx !
bx10xxxxxxxxxx !
0]
1\
0Z
1[
1X
0Y
0%
1$
1'
0&
#575000
bx11xxxxxxxxxx !
1]
0[
1Y
1%
0'
#580000
bx01xxxxxxxxxx !
bx00xxxxxxxxxx !
0]
0\
1Z
1[
0X
0Y
0%
0$
1'
1&
#585000
bx01xxxxxxxxxx !
1]
0[
1Y
1%
0'
#590000
bx11xxxxxxxxxx !
bx10xxxxxxxxxx !
0]
1\
0Z
1[
1X
0Y
0%
1$
1'
0&
#595000
bx11xxxxxxxxxx !
1]
0[
1Y
1%
0'
#600000
bx01xxxxxxxxxx !
bx00xxxxxxxxxx !
0]
0\
1Z
1[
0X
0Y
0%
0$
1'
1&
#605000
bx01xxxxxxxxxx !
1]
0[
1Y
1%
0'
#610000
bx11xxxxxxxxxx !
bx10xxxxxxxxxx !
0]
1\
0Z
1[
1X
0Y
0%
1$
1'
0&
#615000
bx11xxxxxxxxxx !
1]
0[
1Y
1%
0'
#620000
bx01xxxxxxxxxx !
bx00xxxxxxxxxx !
0]
0\
1Z
1[
0X
0Y
0%
0$
1'
1&
#625000
bx01xxxxxxxxxx !
1]
0[
1Y
1%
0'
#630000
bx11xxxxxxxxxx !
bx10xxxxxxxxxx !
0]
1\
0Z
1[
1X
0Y
0%
1$
1'
0&
#635000
bx11xxxxxxxxxx !
1]
0[
1Y
1%
0'
#640000
bx01xxxxxxxxxx !
bx00xxxxxxxxxx !
0]
0\
1Z
1[
0X
0Y
0%
0$
1'
1&
#645000
bx01xxxxxxxxxx !
1]
0[
1Y
1%
0'
#650000
bx11xxxxxxxxxx !
bx10xxxxxxxxxx !
0]
1\
0Z
1[
1X
0Y
0%
1$
1'
0&
#655000
bx11xxxxxxxxxx !
1]
0[
1Y
1%
0'
#660000
bx01xxxxxxxxxx !
bx00xxxxxxxxxx !
0]
0\
1Z
1[
0X
0Y
0%
0$
1'
1&
#665000
bx01xxxxxxxxxx !
1]
0[
1Y
1%
0'
#670000
bx11xxxxxxxxxx !
bx10xxxxxxxxxx !
0]
1\
0Z
1[
1X
0Y
0%
1$
1'
0&
#675000
bx11xxxxxxxxxx !
1]
0[
1Y
1%
0'
#680000
bx01xxxxxxxxxx !
bx00xxxxxxxxxx !
0]
0\
1Z
1[
0X
0Y
0%
0$
1'
1&
#685000
bx01xxxxxxxxxx !
1]
0[
1Y
1%
0'
#690000
bx11xxxxxxxxxx !
bx10xxxxxxxxxx !
0]
1\
0Z
1[
1X
0Y
0%
1$
1'
0&
#695000
bx11xxxxxxxxxx !
1]
0[
1Y
1%
0'
#700000
bx01xxxxxxxxxx !
bx00xxxxxxxxxx !
0]
0\
1Z
1[
0X
0Y
0%
0$
1'
1&
#705000
bx01xxxxxxxxxx !
1]
0[
1Y
1%
0'
#710000
bx11xxxxxxxxxx !
bx10xxxxxxxxxx !
0]
1\
0Z
1[
1X
0Y
0%
1$
1'
0&
#715000
bx11xxxxxxxxxx !
1]
0[
1Y
1%
0'
#720000
bx01xxxxxxxxxx !
bx00xxxxxxxxxx !
0]
0\
1Z
1[
0X
0Y
0%
0$
1'
1&
#725000
bx01xxxxxxxxxx !
1]
0[
1Y
1%
0'
#730000
bx11xxxxxxxxxx !
bx10xxxxxxxxxx !
0]
1\
0Z
1[
1X
0Y
0%
1$
1'
0&
#735000
bx11xxxxxxxxxx !
1]
0[
1Y
1%
0'
#740000
bx01xxxxxxxxxx !
bx00xxxxxxxxxx !
0]
0\
1Z
1[
0X
0Y
0%
0$
1'
1&
#745000
bx01xxxxxxxxxx !
1]
0[
1Y
1%
0'
#750000
bx11xxxxxxxxxx !
bx10xxxxxxxxxx !
0]
1\
0Z
1[
1X
0Y
0%
1$
1'
0&
#755000
bx11xxxxxxxxxx !
1]
0[
1Y
1%
0'
#760000
bx01xxxxxxxxxx !
bx00xxxxxxxxxx !
0]
0\
1Z
1[
0X
0Y
0%
0$
1'
1&
#765000
bx01xxxxxxxxxx !
1]
0[
1Y
1%
0'
#770000
bx11xxxxxxxxxx !
bx10xxxxxxxxxx !
0]
1\
0Z
1[
1X
0Y
0%
1$
1'
0&
#775000
bx11xxxxxxxxxx !
1]
0[
1Y
1%
0'
#780000
bx01xxxxxxxxxx !
bx00xxxxxxxxxx !
0]
0\
1Z
1[
0X
0Y
0%
0$
1'
1&
#785000
bx01xxxxxxxxxx !
1]
0[
1Y
1%
0'
#790000
bx11xxxxxxxxxx !
bx10xxxxxxxxxx !
0]
1\
0Z
1[
1X
0Y
0%
1$
1'
0&
#795000
bx11xxxxxxxxxx !
1]
0[
1Y
1%
0'
#800000
bx01xxxxxxxxxx !
bx00xxxxxxxxxx !
0]
0\
1Z
1[
0X
0Y
0%
0$
1'
1&
#805000
bx01xxxxxxxxxx !
1]
0[
1Y
1%
0'
#810000
bx11xxxxxxxxxx !
bx10xxxxxxxxxx !
0]
1\
0Z
1[
1X
0Y
0%
1$
1'
0&
#815000
bx11xxxxxxxxxx !
1]
0[
1Y
1%
0'
#820000
bx01xxxxxxxxxx !
bx00xxxxxxxxxx !
0]
0\
1Z
1[
0X
0Y
0%
0$
1'
1&
#825000
bx01xxxxxxxxxx !
1]
0[
1Y
1%
0'
#830000
bx11xxxxxxxxxx !
bx10xxxxxxxxxx !
0]
1\
0Z
1[
1X
0Y
0%
1$
1'
0&
#835000
bx11xxxxxxxxxx !
1]
0[
1Y
1%
0'
#840000
bx01xxxxxxxxxx !
bx00xxxxxxxxxx !
0]
0\
1Z
1[
0X
0Y
0%
0$
1'
1&
#845000
bx01xxxxxxxxxx !
1]
0[
1Y
1%
0'
#850000
bx11xxxxxxxxxx !
bx10xxxxxxxxxx !
0]
1\
0Z
1[
1X
0Y
0%
1$
1'
0&
#855000
bx11xxxxxxxxxx !
1]
0[
1Y
1%
0'
#860000
bx01xxxxxxxxxx !
bx00xxxxxxxxxx !
0]
0\
1Z
1[
0X
0Y
0%
0$
1'
1&
#865000
bx01xxxxxxxxxx !
1]
0[
1Y
1%
0'
#870000
bx11xxxxxxxxxx !
bx10xxxxxxxxxx !
0]
1\
0Z
1[
1X
0Y
0%
1$
1'
0&
#875000
bx11xxxxxxxxxx !
1]
0[
1Y
1%
0'
#880000
bx01xxxxxxxxxx !
bx00xxxxxxxxxx !
0]
0\
1Z
1[
0X
0Y
0%
0$
1'
1&
#885000
bx01xxxxxxxxxx !
1]
0[
1Y
1%
0'
#890000
bx11xxxxxxxxxx !
bx10xxxxxxxxxx !
0]
1\
0Z
1[
1X
0Y
0%
1$
1'
0&
#895000
bx11xxxxxxxxxx !
1]
0[
1Y
1%
0'
#900000
bx01xxxxxxxxxx !
bx00xxxxxxxxxx !
0]
0\
1Z
1[
0X
0Y
0%
0$
1'
1&
#905000
bx01xxxxxxxxxx !
1]
0[
1Y
1%
0'
#910000
bx11xxxxxxxxxx !
bx10xxxxxxxxxx !
0]
1\
0Z
1[
1X
0Y
0%
1$
1'
0&
#915000
bx11xxxxxxxxxx !
1]
0[
1Y
1%
0'
#920000
bx01xxxxxxxxxx !
bx00xxxxxxxxxx !
0]
0\
1Z
1[
0X
0Y
0%
0$
1'
1&
#925000
bx01xxxxxxxxxx !
1]
0[
1Y
1%
0'
#930000
bx11xxxxxxxxxx !
bx10xxxxxxxxxx !
0]
1\
0Z
1[
1X
0Y
0%
1$
1'
0&
#935000
bx11xxxxxxxxxx !
1]
0[
1Y
1%
0'
#940000
bx01xxxxxxxxxx !
bx00xxxxxxxxxx !
0]
0\
1Z
1[
0X
0Y
0%
0$
1'
1&
#945000
bx01xxxxxxxxxx !
1]
0[
1Y
1%
0'
#950000
bx11xxxxxxxxxx !
bx10xxxxxxxxxx !
0]
1\
0Z
1[
1X
0Y
0%
1$
1'
0&
#955000
bx11xxxxxxxxxx !
1]
0[
1Y
1%
0'
#960000
bx01xxxxxxxxxx !
bx00xxxxxxxxxx !
0]
0\
1Z
1[
0X
0Y
0%
0$
1'
1&
#965000
bx01xxxxxxxxxx !
1]
0[
1Y
1%
0'
#970000
bx11xxxxxxxxxx !
bx10xxxxxxxxxx !
0]
1\
0Z
1[
1X
0Y
0%
1$
1'
0&
#975000
bx11xxxxxxxxxx !
1]
0[
1Y
1%
0'
#980000
bx01xxxxxxxxxx !
bx00xxxxxxxxxx !
0]
0\
1Z
1[
0X
0Y
0%
0$
1'
1&
#985000
bx01xxxxxxxxxx !
1]
0[
1Y
1%
0'
#990000
bx11xxxxxxxxxx !
bx10xxxxxxxxxx !
0]
1\
0Z
1[
1X
0Y
0%
1$
1'
0&
#995000
bx11xxxxxxxxxx !
1]
0[
1Y
1%
0'
