SynchronousCounter/simulation/qsim/SynchronousCounter.msim.vcd
$comment
	File created using the following command:
		vcd file SynchronousCounter.msim.vcd -direction
$end
$date
	Mon Oct 24 14:54:43 2022
$end
$version
	ModelSim Version 10.5b
$end
$timescale
	1ps
$end

$scope module SynchronousCounter_vlg_vec_tst $end
$var reg 1 ! CLK $end
$var reg 1 " CLRN $end
$var reg 4 # D [3:0] $end
$var reg 1 $ LOAD $end
$var wire 1 % Q [7] $end
$var wire 1 & Q [6] $end
$var wire 1 ' Q [5] $end
$var wire 1 ( Q [4] $end
$var wire 1 ) Q [3] $end
$var wire 1 * Q [2] $end
$var wire 1 + Q [1] $end
$var wire 1 , Q [0] $end

$scope module i1 $end
$var wire 1 - gnd $end
$var wire 1 . vcc $end
$var wire 1 / unknown $end
$var tri1 1 0 devclrn $end
$var tri1 1 1 devpor $end
$var tri1 1 2 devoe $end
$var wire 1 3 Q[7]~output_o $end
$var wire 1 4 Q[6]~output_o $end
$var wire 1 5 Q[5]~output_o $end
$var wire 1 6 Q[4]~output_o $end
$var wire 1 7 Q[3]~output_o $end
$var wire 1 8 Q[2]~output_o $end
$var wire 1 9 Q[1]~output_o $end
$var wire 1 : Q[0]~output_o $end
$var wire 1 ; CLK~input_o $end
$var wire 1 < LOAD~input_o $end
$var wire 1 = D[0]~input_o $end
$var wire 1 > inst|instA1~combout $end
$var wire 1 ? CLRN~input_o $end
$var wire 1 @ inst|instA14~combout $end
$var wire 1 A inst|inst~1_combout $end
$var wire 1 B inst|inst~3_combout $end
$var wire 1 C inst|inst~0_combout $end
$var wire 1 D inst|inst~_emulated_q $end
$var wire 1 E inst|inst~2_combout $end
$var wire 1 F D[1]~input_o $end
$var wire 1 G inst1|instA1~combout $end
$var wire 1 H inst1|instA14~combout $end
$var wire 1 I inst1|inst~1_combout $end
$var wire 1 J inst1|inst~3_combout $end
$var wire 1 K inst1|inst~0_combout $end
$var wire 1 L inst1|inst~_emulated_q $end
$var wire 1 M inst1|inst~2_combout $end
$var wire 1 N D[2]~input_o $end
$var wire 1 O inst2|instA1~combout $end
$var wire 1 P inst2|instA14~combout $end
$var wire 1 Q inst2|inst~1_combout $end
$var wire 1 R inst2|inst~3_combout $end
$var wire 1 S inst2|inst~0_combout $end
$var wire 1 T inst2|inst~_emulated_q $end
$var wire 1 U inst2|inst~2_combout $end
$var wire 1 V D[3]~input_o $end
$var wire 1 W inst3|instA1~combout $end
$var wire 1 X inst3|instA14~combout $end
$var wire 1 Y inst3|inst~1_combout $end
$var wire 1 Z inst3|inst~3_combout $end
$var wire 1 [ inst3|inst~0_combout $end
$var wire 1 \ inst3|inst~_emulated_q $end
$var wire 1 ] inst3|inst~2_combout $end
$var wire 1 ^ inst7~0_combout $end
$var wire 1 _ inst7~q $end
$var wire 1 ` inst10~0_combout $end
$var wire 1 a inst10~q $end
$var wire 1 b inst12~1_combout $end
$var wire 1 c inst12~0_combout $end
$var wire 1 d inst12~q $end
$var wire 1 e inst14~1_combout $end
$var wire 1 f inst14~0_combout $end
$var wire 1 g inst14~q $end
$upscope $end
$upscope $end
$enddefinitions $end
#0
$dumpvars
0!
0"
b0 #
0$
0,
0+
0*
0)
0(
0'
0&
0%
0-
1.
x/
10
11
12
03
04
05
06
07
08
09
0:
0;
0<
0=
0>
0?
1@
0A
1B
1C
0D
0E
0F
0G
1H
0I
0J
1K
0L
0M
0N
0O
1P
0Q
0R
1S
0T
0U
0V
0W
1X
0Y
0Z
1[
0\
0]
0^
0_
0`
0a
0b
0c
0d
0e
0f
0g
$end
#20000
1!
1"
1?
1;
0X
0P
0H
0@
0C
0K
0S
0[
#40000
0!
0;
#60000
1!
1;
1D
1E
1:
1,
1J
0B
#80000
0!
0;
#100000
1!
1;
1L
0D
0E
1M
19
0:
0,
1+
1B
#120000
0!
0;
#130000
b1000 #
b1010 #
1F
1V
#140000
1$
1!
1<
1;
1W
1P
1G
1@
1C
1K
1I
1S
1[
1Y
1]
17
1)
0J
0L
#160000
0$
0!
0<
0;
0W
0P
0G
0@
0C
0K
0S
0[
#170000
b10 #
b0 #
0F
0V
#180000
1!
1;
1D
1E
1:
1,
1R
1J
0B
#200000
0!
0;
#220000
1!
1;
1T
1L
0D
0E
0M
1U
18
09
0:
0,
0+
1*
1B
#240000
0!
0;
#260000
1!
1;
1D
1E
1:
1,
0J
0B
#280000
0!
0;
#300000
0"
1!
0?
1;
1X
1P
1H
1@
1C
1K
0I
1S
1[
0Y
0E
0U
0]
07
08
0:
0,
0*
0)
0R
1B
0T
0L
0D
#320000
1"
0!
1?
0;
0X
0P
0H
0@
0C
0K
0S
0[
#340000
1!
1;
1D
1E
1:
1,
1J
0B
#360000
0!
0;
#380000
1!
1;
1L
0D
0E
1M
19
0:
0,
1+
1B
#400000
0!
0;
#420000
1!
1;
1D
1E
1:
1,
1R
0J
0B
#440000
0!
0;
#460000
1!
1;
1T
0L
0D
0E
0M
1U
18
09
0:
0,
0+
1*
1B
#480000
0!
0;
#500000
1!
1;
1D
1E
1:
1,
1J
0B
#520000
0!
0;
#540000
1!
1;
1L
0D
0E
1M
19
0:
0,
1+
1B
#560000
0!
0;
#580000
1!
1;
1D
1E
1:
1,
1Z
0R
0J
0B
#600000
0!
0;
#620000
1!
1;
1\
0T
0L
0D
0E
0M
0U
1]
17
08
09
0:
0,
0+
0*
1)
1B
#640000
0!
0;
#650000
b100 #
b101 #
b1101 #
1=
1N
1V
#660000
1$
1!
1<
1;
1W
1O
1H
1>
1C
1A
1K
1S
1Q
1[
1Y
1E
1U
18
1:
1,
1*
0Z
1J
0\
#680000
0$
0!
0<
0;
0W
0O
0H
0>
0C
0K
0S
0[
#690000
b1001 #
b1000 #
b0 #
0=
0N
0V
#700000
1!
1;
1L
1D
0E
1M
19
0:
0,
1+
0B
#720000
0!
0;
#740000
1!
1;
0D
1E
1:
1,
1^
1Z
1R
0J
1B
#760000
0!
0;
#780000
1!
1;
1\
1T
0L
1D
1_
16
1(
0E
0M
0U
0]
1`
0^
07
08
09
0:
0,
0+
0*
0)
0`
1^
0B
#800000
0!
0;
#820000
1!
1;
0D
1E
1:
1,
1J
1B
#840000
0!
0;
#860000
1!
1;
1L
1D
0E
1M
19
0:
0,
1+
0B
#880000
0!
0;
#900000
1!
1;
0D
1E
1:
1,
0R
0J
1B
#920000
0!
0;
#940000
1!
1;
0T
0L
1D
0E
0M
1U
18
09
0:
0,
0+
1*
0B
#960000
0!
0;
#980000
1!
1;
0D
1E
1:
1,
1J
1B
