SynchronousCounter/simulation/qsim/SynchronousCounter.msim.vcd
$comment
	File created using the following command:
		vcd file SynchronousCounter.msim.vcd -direction
$end
$date
	Tue Sep 20 13:55:45 2022
$end
$version
	ModelSim Version 10.5b
$end
$timescale
	1ps
$end

$scope module SynchronousCounter_vlg_vec_tst $end
$var reg 1 ! CLK $end
$var reg 1 " CLR $end
$var wire 1 # Q [7] $end
$var wire 1 $ Q [6] $end
$var wire 1 % Q [5] $end
$var wire 1 & Q [4] $end
$var wire 1 ' Q [3] $end
$var wire 1 ( Q [2] $end
$var wire 1 ) Q [1] $end
$var wire 1 * Q [0] $end

$scope module i1 $end
$var wire 1 + gnd $end
$var wire 1 , vcc $end
$var wire 1 - unknown $end
$var tri1 1 . devclrn $end
$var tri1 1 / devpor $end
$var tri1 1 0 devoe $end
$var wire 1 1 ~QUARTUS_CREATED_GND~I_combout $end
$var wire 1 2 CLK~input_o $end
$var wire 1 3 CLK~inputCLKENA0_outclk $end
$var wire 1 4 CLR~input_o $end
$var wire 1 5 inst~q $end
$var wire 1 6 inst~0_combout $end
$var wire 1 7 inst~DUPLICATE_q $end
$var wire 1 8 inst3~0_combout $end
$var wire 1 9 inst3~q $end
$var wire 1 : inst5~q $end
$var wire 1 ; inst3~DUPLICATE_q $end
$var wire 1 < inst5~0_combout $end
$var wire 1 = inst5~DUPLICATE_q $end
$var wire 1 > inst71~q $end
$var wire 1 ? inst71~0_combout $end
$var wire 1 @ inst71~DUPLICATE_q $end
$var wire 1 A inst7~0_combout $end
$var wire 1 B inst7~q $end
$var wire 1 C inst10~0_combout $end
$var wire 1 D inst10~q $end
$var wire 1 E inst9~combout $end
$var wire 1 F inst12~0_combout $end
$var wire 1 G inst12~q $end
$var wire 1 H inst14~0_combout $end
$var wire 1 I inst14~q $end
$upscope $end
$upscope $end
$enddefinitions $end
#0
$dumpvars
0!
1"
0*
0)
0(
0'
0&
0%
0$
0#
0+
1,
x-
1.
1/
10
01
02
03
14
05
16
07
08
09
0:
0;
0<
0=
0>
0?
0@
0A
0B
0C
0D
0E
0F
0G
0H
0I
$end
#500
1!
12
13
15
17
1*
06
18
#1000
0!
02
03
#1500
1!
12
13
19
05
1;
07
0*
1)
16
#2000
0!
02
03
#2500
1!
12
13
15
17
1*
06
1<
08
#3000
0!
02
03
#3500
1!
12
13
1:
09
05
1=
0;
07
0*
0)
1(
16
#4000
0!
02
03
#4500
1!
12
13
15
17
1*
06
18
#5000
0!
02
03
#5500
1!
12
13
19
05
1;
07
0*
1)
16
#6000
0!
02
03
#6500
1!
12
13
15
17
1*
06
1?
0<
08
#7000
0!
02
03
#7500
1!
12
13
1>
0:
09
05
1@
0=
0;
07
0*
0)
0(
1'
16
#8000
0!
02
03
#8500
1!
12
13
15
17
1*
06
18
#9000
0!
02
03
#9500
1!
12
13
19
05
1;
07
0*
1)
16
#10000
0!
02
03
#10500
1!
12
13
15
17
1*
06
1<
08
#11000
0!
02
03
#11500
1!
12
13
1:
09
05
1=
0;
07
0*
0)
1(
16
#12000
0!
02
03
#12500
1!
12
13
15
17
1*
06
18
#13000
0!
02
03
#13500
1!
12
13
19
05
1;
07
0*
1)
16
#14000
0!
02
03
#14500
1!
12
13
15
17
1*
1E
06
1A
0?
0<
08
#15000
0!
02
03
#15500
1!
12
13
0>
0:
09
05
1B
0@
0=
0;
07
0*
0)
0(
0'
1&
0E
16
#16000
0!
02
03
#16500
1!
12
13
15
17
1*
06
18
#17000
0!
02
03
#17500
1!
12
13
19
05
1;
07
0*
1)
16
#18000
0!
02
03
#18500
1!
12
13
15
17
1*
06
1<
08
#19000
0!
02
03
#19500
1!
12
13
1:
09
05
1=
0;
07
0*
0)
1(
16
#20000
0!
02
03
#20500
1!
12
13
15
17
1*
06
18
#21000
0!
02
03
#21500
1!
12
13
19
05
1;
07
0*
1)
16
#22000
0!
02
03
#22500
1!
12
13
15
17
1*
06
1?
0<
08
#23000
0!
02
03
#23500
1!
12
13
1>
0:
09
05
1@
0=
0;
07
0*
0)
0(
1'
16
#24000
0!
02
03
#24500
1!
12
13
15
17
1*
06
18
#25000
0!
02
03
#25500
1!
12
13
19
05
1;
07
0*
1)
16
#26000
0!
02
03
#26500
1!
12
13
15
17
1*
06
1<
08
#27000
0!
02
03
#27500
1!
12
13
1:
09
05
1=
0;
07
0*
0)
1(
16
#28000
0!
02
03
#28500
1!
12
13
15
17
1*
06
18
#29000
0!
02
03
#29500
1!
12
13
19
05
1;
07
0*
1)
16
#30000
0!
02
03
#30500
1!
12
13
15
17
1*
1E
06
1C
0A
0?
0<
08
#31000
0!
02
03
#31500
1!
12
13
0>
0:
09
05
1D
0B
0@
0=
0;
07
0*
0)
0(
0'
0&
1%
0E
16
#32000
0!
02
03
#32500
1!
12
13
15
17
1*
06
18
#33000
0!
02
03
#33500
1!
12
13
19
05
1;
07
0*
1)
16
#34000
0!
02
03
#34500
1!
12
13
15
17
1*
06
1<
08
#35000
0!
02
03
#35500
1!
12
13
1:
09
05
1=
0;
07
0*
0)
1(
16
#36000
0!
02
03
#36500
1!
12
13
15
17
1*
06
18
#37000
0!
02
03
#37500
1!
12
13
19
05
1;
07
0*
1)
16
#38000
0!
02
03
#38500
1!
12
13
15
17
1*
06
1?
0<
08
#39000
0!
02
03
#39500
1!
12
13
1>
0:
09
05
1@
0=
0;
07
0*
0)
0(
1'
16
#40000
0!
02
03
#40500
1!
12
13
15
17
1*
06
18
#41000
0!
02
03
#41500
1!
12
13
19
05
1;
07
0*
1)
16
#42000
0!
02
03
#42500
1!
12
13
15
17
1*
06
1<
08
#43000
0!
02
03
#43500
1!
12
13
1:
09
05
1=
0;
07
0*
0)
1(
16
#44000
0!
02
03
#44500
1!
12
13
15
17
1*
06
18
#45000
0!
02
03
#45500
1!
12
13
19
05
1;
07
0*
1)
16
#46000
0!
02
03
#46500
1!
12
13
15
17
1*
1E
06
1A
0?
0<
08
#47000
0!
02
03
#47500
1!
12
13
0>
0:
09
05
1B
0@
0=
0;
07
0*
0)
0(
0'
1&
0E
16
1F
0F
#48000
0!
02
03
#48500
1!
12
13
15
17
1*
06
18
#49000
0!
02
03
#49500
1!
12
13
19
05
1;
07
0*
1)
16
#50000
0!
02
03
#50500
1!
12
13
15
17
1*
06
1<
08
#51000
0!
02
03
#51500
1!
12
13
1:
09
05
1=
0;
07
0*
0)
1(
16
#52000
0!
02
03
#52500
1!
12
13
15
17
1*
06
18
#53000
0!
02
03
#53500
1!
12
13
19
05
1;
07
0*
1)
16
#54000
0!
02
03
#54500
1!
12
13
15
17
1*
06
1?
0<
08
#55000
0!
02
03
#55500
1!
12
13
1>
0:
09
05
1@
0=
0;
07
0*
0)
0(
1'
16
#56000
0!
02
03
#56500
1!
12
13
15
17
1*
06
18
#57000
0!
02
03
#57500
1!
12
13
19
05
1;
07
0*
1)
16
#58000
0!
02
03
#58500
1!
12
13
15
17
1*
06
1<
08
#59000
0!
02
03
#59500
1!
12
13
1:
09
05
1=
0;
07
0*
0)
1(
16
#60000
0!
02
03
#60500
1!
12
13
15
17
1*
06
18
#61000
0!
02
03
#61500
1!
12
13
19
05
1;
07
0*
1)
16
#62000
0!
02
03
#62500
1!
12
13
15
17
1*
1E
06
0C
0A
0?
0<
08
1F
#63000
0!
02
03
#63500
1!
12
13
0>
0:
09
05
1G
0D
0B
0@
0=
0;
07
0*
0)
0(
0'
0&
0%
1$
0E
16
#64000
0!
02
03
#64500
1!
12
13
15
17
1*
06
18
#65000
0!
02
03
#65500
1!
12
13
19
05
1;
07
0*
1)
16
#66000
0!
02
03
#66500
1!
12
13
15
17
1*
06
1<
08
#67000
0!
02
03
#67500
1!
12
13
1:
09
05
1=
0;
07
0*
0)
1(
16
#68000
0!
02
03
#68500
1!
12
13
15
17
1*
06
18
#69000
0!
02
03
#69500
1!
12
13
19
05
1;
07
0*
1)
16
#70000
0!
02
03
#70500
1!
12
13
15
17
1*
06
1?
0<
08
#71000
0!
02
03
#71500
1!
12
13
1>
0:
09
05
1@
0=
0;
07
0*
0)
0(
1'
16
#72000
0!
02
03
#72500
1!
12
13
15
17
1*
06
18
#73000
0!
02
03
#73500
1!
12
13
19
05
1;
07
0*
1)
16
#74000
0!
02
03
#74500
1!
12
13
15
17
1*
06
1<
08
#75000
0!
02
03
#75500
1!
12
13
1:
09
05
1=
0;
07
0*
0)
1(
16
#76000
0!
02
03
#76500
1!
12
13
15
17
1*
06
18
#77000
0!
02
03
#77500
1!
12
13
19
05
1;
07
0*
1)
16
#78000
0!
02
03
#78500
1!
12
13
15
17
1*
1E
06
1A
0?
0<
08
#79000
0!
02
03
#79500
1!
12
13
0>
0:
09
05
1B
0@
0=
0;
07
0*
0)
0(
0'
1&
0E
16
#80000
0!
02
03
#80500
1!
12
13
15
17
1*
06
18
#81000
0!
02
03
#81500
1!
12
13
19
05
1;
07
0*
1)
16
#82000
0!
02
03
#82500
1!
12
13
15
17
1*
06
1<
08
#83000
0!
02
03
#83500
1!
12
13
1:
09
05
1=
0;
07
0*
0)
1(
16
#84000
0!
02
03
#84500
1!
12
13
15
17
1*
06
18
#85000
0!
02
03
#85500
1!
12
13
19
05
1;
07
0*
1)
16
#86000
0!
02
03
#86500
1!
12
13
15
17
1*
06
1?
0<
08
#87000
0!
02
03
#87500
1!
12
13
1>
0:
09
05
1@
0=
0;
07
0*
0)
0(
1'
16
#88000
0!
02
03
#88500
1!
12
13
15
17
1*
06
18
#89000
0!
02
03
#89500
1!
12
13
19
05
1;
07
0*
1)
16
#90000
0!
02
03
#90500
1!
12
13
15
17
1*
06
1<
08
#91000
0!
02
03
#91500
1!
12
13
1:
09
05
1=
0;
07
0*
0)
1(
16
#92000
0!
02
03
#92500
1!
12
13
15
17
1*
06
18
#93000
0!
02
03
#93500
1!
12
13
19
05
1;
07
0*
1)
16
#94000
0!
02
03
#94500
1!
12
13
15
17
1*
1E
06
1C
0A
0?
0<
08
#95000
0!
02
03
#95500
1!
12
13
0>
0:
09
05
1D
0B
0@
0=
0;
07
0*
0)
0(
0'
0&
1%
0E
16
#96000
0!
02
03
#96500
1!
12
13
15
17
1*
06
18
#97000
0!
02
03
#97500
1!
12
13
19
05
1;
07
0*
1)
16
#98000
0!
02
03
#98500
1!
12
13
15
17
1*
06
1<
08
#99000
0!
02
03
#99500
1!
12
13
1:
09
05
1=
0;
07
0*
0)
1(
16
#100000
0!
02
03
#100500
1!
12
13
15
17
1*
06
18
#101000
0!
02
03
#101500
1!
12
13
19
05
1;
07
0*
1)
16
#102000
0!
02
03
#102500
1!
12
13
15
17
1*
06
1?
0<
08
#103000
0!
02
03
#103500
1!
12
13
1>
0:
09
05
1@
0=
0;
07
0*
0)
0(
1'
16
#104000
0!
02
03
#104500
1!
12
13
15
17
1*
06
18
#105000
0!
02
03
#105500
1!
12
13
19
05
1;
07
0*
1)
16
#106000
0!
02
03
#106500
1!
12
13
15
17
1*
06
1<
08
#107000
0!
02
03
#107500
1!
12
13
1:
09
05
1=
0;
07
0*
0)
1(
16
#108000
0!
02
03
#108500
1!
12
13
15
17
1*
06
18
#109000
0!
02
03
#109500
1!
12
13
19
05
1;
07
0*
1)
16
#110000
0!
02
03
#110500
1!
12
13
15
17
1*
1E
06
1A
0?
0<
08
#111000
0!
02
03
#111500
1!
12
13
0>
0:
09
05
1B
0@
0=
0;
07
0*
0)
0(
0'
1&
0E
16
1H
0F
0H
1F
#112000
0!
02
03
#112500
1!
12
13
15
17
1*
06
18
#113000
0!
02
03
#113500
1!
12
13
19
05
1;
07
0*
1)
16
#114000
0!
02
03
#114500
1!
12
13
15
17
1*
06
1<
08
#115000
0!
02
03
#115500
1!
12
13
1:
09
05
1=
0;
07
0*
0)
1(
16
#116000
0!
02
03
#116500
1!
12
13
15
17
1*
06
18
#117000
0!
02
03
#117500
1!
12
13
19
05
1;
07
0*
1)
16
#118000
0!
02
03
#118500
1!
12
13
15
17
1*
06
1?
0<
08
#119000
0!
02
03
#119500
1!
12
13
1>
0:
09
05
1@
0=
0;
07
0*
0)
0(
1'
16
#120000
0!
02
03
#120500
1!
12
13
15
17
1*
06
18
#121000
0!
02
03
#121500
1!
12
13
19
05
1;
07
0*
1)
16
#122000
0!
02
03
#122500
1!
12
13
15
17
1*
06
1<
08
#123000
0!
02
03
#123500
1!
12
13
1:
09
05
1=
0;
07
0*
0)
1(
16
#124000
0!
02
03
#124500
1!
12
13
15
17
1*
06
18
#125000
0!
02
03
#125500
1!
12
13
19
05
1;
07
0*
1)
16
#126000
0!
02
03
#126500
1!
12
13
15
17
1*
1E
06
0C
0A
0?
0<
08
1H
0F
#127000
0!
02
03
#127500
1!
12
13
0>
0:
09
05
1I
0G
0D
0B
0@
0=
0;
07
0*
0)
0(
0'
0&
0%
0$
1#
0E
16
#128000
0!
02
03
#128500
1!
12
13
15
17
1*
06
18
#129000
0!
02
03
#129500
1!
12
13
19
05
1;
07
0*
1)
16
#130000
0!
02
03
#130500
1!
12
13
15
17
1*
06
1<
08
#131000
0!
02
03
#131500
1!
12
13
1:
09
05
1=
0;
07
0*
0)
1(
16
#132000
0!
02
03
#132500
1!
12
13
15
17
1*
06
18
#133000
0!
02
03
#133500
1!
12
13
19
05
1;
07
0*
1)
16
#134000
0!
02
03
#134500
1!
12
13
15
17
1*
06
1?
0<
08
#135000
0!
02
03
#135500
1!
12
13
1>
0:
09
05
1@
0=
0;
07
0*
0)
0(
1'
16
#136000
0!
02
03
#136500
1!
12
13
15
17
1*
06
18
#137000
0!
02
03
#137500
1!
12
13
19
05
1;
07
0*
1)
16
#138000
0!
02
03
#138500
1!
12
13
15
17
1*
06
1<
08
#139000
0!
02
03
#139500
1!
12
13
1:
09
05
1=
0;
07
0*
0)
1(
16
#140000
0!
02
03
#140500
1!
12
13
15
17
1*
06
18
#141000
0!
02
03
#141500
1!
12
13
19
05
1;
07
0*
1)
16
#142000
0!
02
03
#142500
1!
12
13
15
17
1*
1E
06
1A
0?
0<
08
#143000
0!
02
03
#143500
1!
12
13
0>
0:
09
05
1B
0@
0=
0;
07
0*
0)
0(
0'
1&
0E
16
#144000
0!
02
03
#144500
1!
12
13
15
17
1*
06
18
#145000
0!
02
03
#145500
1!
12
13
19
05
1;
07
0*
1)
16
#146000
0!
02
03
#146500
1!
12
13
15
17
1*
06
1<
08
#147000
0!
02
03
#147500
1!
12
13
1:
09
05
1=
0;
07
0*
0)
1(
16
#148000
0!
02
03
#148500
1!
12
13
15
17
1*
06
18
#149000
0!
02
03
#149500
1!
12
13
19
05
1;
07
0*
1)
16
#150000
0!
02
03
#150500
1!
12
13
15
17
1*
06
1?
0<
08
#151000
0!
02
03
#151500
1!
12
13
1>
0:
09
05
1@
0=
0;
07
0*
0)
0(
1'
16
#152000
0!
02
03
#152500
1!
12
13
15
17
1*
06
18
#153000
0!
02
03
#153500
1!
12
13
19
05
1;
07
0*
1)
16
#154000
0!
02
03
#154500
1!
12
13
15
17
1*
06
1<
08
#155000
0!
02
03
#155500
1!
12
13
1:
09
05
1=
0;
07
0*
0)
1(
16
#156000
0!
02
03
#156500
1!
12
13
15
17
1*
06
18
#157000
0!
02
03
#157500
1!
12
13
19
05
1;
07
0*
1)
16
#158000
0!
02
03
#158500
1!
12
13
15
17
1*
1E
06
1C
0A
0?
0<
08
#159000
0!
02
03
#159500
1!
12
13
0>
0:
09
05
1D
0B
0@
0=
0;
07
0*
0)
0(
0'
0&
1%
0E
16
#160000
0!
02
03
#160500
1!
12
13
15
17
1*
06
18
#161000
0!
02
03
#161500
1!
12
13
19
05
1;
07
0*
1)
16
#162000
0!
02
03
#162500
1!
12
13
15
17
1*
06
1<
08
#163000
0!
02
03
#163500
1!
12
13
1:
09
05
1=
0;
07
0*
0)
1(
16
#164000
0!
02
03
#164500
1!
12
13
15
17
1*
06
18
#165000
0!
02
03
#165500
1!
12
13
19
05
1;
07
0*
1)
16
#166000
0!
02
03
#166500
1!
12
13
15
17
1*
06
1?
0<
08
#167000
0!
02
03
#167500
1!
12
13
1>
0:
09
05
1@
0=
0;
07
0*
0)
0(
1'
16
#168000
0!
02
03
#168500
1!
12
13
15
17
1*
06
18
#169000
0!
02
03
#169500
1!
12
13
19
05
1;
07
0*
1)
16
#170000
0!
02
03
#170500
1!
12
13
15
17
1*
06
1<
08
#171000
0!
02
03
#171500
1!
12
13
1:
09
05
1=
0;
07
0*
0)
1(
16
#172000
0!
02
03
#172500
1!
12
13
15
17
1*
06
18
#173000
0!
02
03
#173500
1!
12
13
19
05
1;
07
0*
1)
16
#174000
0!
02
03
#174500
1!
12
13
15
17
1*
1E
06
1A
0?
0<
08
#175000
0!
02
03
#175500
1!
12
13
0>
0:
09
05
1B
0@
0=
0;
07
0*
0)
0(
0'
1&
0E
16
1F
0F
#176000
0!
02
03
#176500
1!
12
13
15
17
1*
06
18
#177000
0!
02
03
#177500
1!
12
13
19
05
1;
07
0*
1)
16
#178000
0!
02
03
#178500
1!
12
13
15
17
1*
06
1<
08
#179000
0!
02
03
#179500
1!
12
13
1:
09
05
1=
0;
07
0*
0)
1(
16
#180000
0!
02
03
#180500
1!
12
13
15
17
1*
06
18
#181000
0!
02
03
#181500
1!
12
13
19
05
1;
07
0*
1)
16
#182000
0!
02
03
#182500
1!
12
13
15
17
1*
06
1?
0<
08
#183000
0!
02
03
#183500
1!
12
13
1>
0:
09
05
1@
0=
0;
07
0*
0)
0(
1'
16
#184000
0!
02
03
#184500
1!
12
13
15
17
1*
06
18
#185000
0!
02
03
#185500
1!
12
13
19
05
1;
07
0*
1)
16
#186000
0!
02
03
#186500
1!
12
13
15
17
1*
06
1<
08
#187000
0!
02
03
#187500
1!
12
13
1:
09
05
1=
0;
07
0*
0)
1(
16
#188000
0!
02
03
#188500
1!
12
13
15
17
1*
06
18
#189000
0!
02
03
#189500
1!
12
13
19
05
1;
07
0*
1)
16
#190000
0!
02
03
#190500
1!
12
13
15
17
1*
1E
06
0C
0A
0?
0<
08
1F
#191000
0!
02
03
#191500
1!
12
13
0>
0:
09
05
1G
0D
0B
0@
0=
0;
07
0*
0)
0(
0'
0&
0%
1$
0E
16
#192000
0!
02
03
#192500
1!
12
13
15
17
1*
06
18
#193000
0!
02
03
#193500
1!
12
13
19
05
1;
07
0*
1)
16
#194000
0!
02
03
#194500
1!
12
13
15
17
1*
06
1<
08
#195000
0!
02
03
#195500
1!
12
13
1:
09
05
1=
0;
07
0*
0)
1(
16
#196000
0!
02
03
#196500
1!
12
13
15
17
1*
06
18
#197000
0!
02
03
#197500
1!
12
13
19
05
1;
07
0*
1)
16
#198000
0!
02
03
#198500
1!
12
13
15
17
1*
06
1?
0<
08
#199000
0!
02
03
#199500
1!
12
13
1>
0:
09
05
1@
0=
0;
07
0*
0)
0(
1'
16
#200000
0!
02
03
#200500
1!
12
13
15
17
1*
06
18
#201000
0!
02
03
#201500
1!
12
13
19
05
1;
07
0*
1)
16
#202000
0!
02
03
#202500
1!
12
13
15
17
1*
06
1<
08
#203000
0!
02
03
#203500
1!
12
13
1:
09
05
1=
0;
07
0*
0)
1(
16
#204000
0!
02
03
#204500
1!
12
13
15
17
1*
06
18
#205000
0!
02
03
#205500
1!
12
13
19
05
1;
07
0*
1)
16
#206000
0!
02
03
#206500
1!
12
13
15
17
1*
1E
06
1A
0?
0<
08
#207000
0!
02
03
#207500
1!
12
13
0>
0:
09
05
1B
0@
0=
0;
07
0*
0)
0(
0'
1&
0E
16
#208000
0!
02
03
#208500
1!
12
13
15
17
1*
06
18
#209000
0!
02
03
#209500
1!
12
13
19
05
1;
07
0*
1)
16
#210000
0!
02
03
#210500
1!
12
13
15
17
1*
06
1<
08
#211000
0!
02
03
#211500
1!
12
13
1:
09
05
1=
0;
07
0*
0)
1(
16
#212000
0!
02
03
#212500
1!
12
13
15
17
1*
06
18
#213000
0!
02
03
#213500
1!
12
13
19
05
1;
07
0*
1)
16
#214000
0!
02
03
#214500
1!
12
13
15
17
1*
06
1?
0<
08
#215000
0!
02
03
#215500
1!
12
13
1>
0:
09
05
1@
0=
0;
07
0*
0)
0(
1'
16
#216000
0!
02
03
#216500
1!
12
13
15
17
1*
06
18
#217000
0!
02
03
#217500
1!
12
13
19
05
1;
07
0*
1)
16
#218000
0!
02
03
#218500
1!
12
13
15
17
1*
06
1<
08
#219000
0!
02
03
#219500
1!
12
13
1:
09
05
1=
0;
07
0*
0)
1(
16
#220000
0!
02
03
#220500
1!
12
13
15
17
1*
06
18
#221000
0!
02
03
#221500
1!
12
13
19
05
1;
07
0*
1)
16
#222000
0!
02
03
#222500
1!
12
13
15
17
1*
1E
06
1C
0A
0?
0<
08
#223000
0!
02
03
#223500
1!
12
13
0>
0:
09
05
1D
0B
0@
0=
0;
07
0*
0)
0(
0'
0&
1%
0E
16
#224000
0!
02
03
#224500
1!
12
13
15
17
1*
06
18
#225000
0!
02
03
#225500
1!
12
13
19
05
1;
07
0*
1)
16
#226000
0!
02
03
#226500
1!
12
13
15
17
1*
06
1<
08
#227000
0!
02
03
#227500
1!
12
13
1:
09
05
1=
0;
07
0*
0)
1(
16
#228000
0!
02
03
#228500
1!
12
13
15
17
1*
06
18
#229000
0!
02
03
#229500
1!
12
13
19
05
1;
07
0*
1)
16
#230000
0!
02
03
#230500
1!
12
13
15
17
1*
06
1?
0<
08
#231000
0!
02
03
#231500
1!
12
13
1>
0:
09
05
1@
0=
0;
07
0*
0)
0(
1'
16
#232000
0!
02
03
#232500
1!
12
13
15
17
1*
06
18
#233000
0!
02
03
#233500
1!
12
13
19
05
1;
07
0*
1)
16
#234000
0!
02
03
#234500
1!
12
13
15
17
1*
06
1<
08
#235000
0!
02
03
#235500
1!
12
13
1:
09
05
1=
0;
07
0*
0)
1(
16
#236000
0!
02
03
#236500
1!
12
13
15
17
1*
06
18
#237000
0!
02
03
#237500
1!
12
13
19
05
1;
07
0*
1)
16
#238000
0!
02
03
#238500
1!
12
13
15
17
1*
1E
06
1A
0?
0<
08
#239000
0!
02
03
#239500
1!
12
13
0>
0:
09
05
1B
0@
0=
0;
07
0*
0)
0(
0'
1&
0E
16
0H
0F
1H
1F
#240000
0!
02
03
#240500
1!
12
13
15
17
1*
06
18
#241000
0!
02
03
#241500
1!
12
13
19
05
1;
07
0*
1)
16
#242000
0!
02
03
#242500
1!
12
13
15
17
1*
06
1<
08
#243000
0!
02
03
#243500
1!
12
13
1:
09
05
1=
0;
07
0*
0)
1(
16
#244000
0!
02
03
#244500
1!
12
13
15
17
1*
06
18
#245000
0!
02
03
#245500
1!
12
13
19
05
1;
07
0*
1)
16
#246000
0!
02
03
#246500
1!
12
13
15
17
1*
06
1?
0<
08
#247000
0!
02
03
#247500
1!
12
13
1>
0:
09
05
1@
0=
0;
07
0*
0)
0(
1'
16
#248000
0!
02
03
#248500
1!
12
13
15
17
1*
06
18
#249000
0!
02
03
#249500
1!
12
13
19
05
1;
07
0*
1)
16
#250000
0!
02
03
#250500
1!
12
13
15
17
1*
06
1<
08
#251000
0!
02
03
#251500
1!
12
13
1:
09
05
1=
0;
07
0*
0)
1(
16
#252000
0!
02
03
#252500
1!
12
13
15
17
1*
06
18
#253000
0!
02
03
#253500
1!
12
13
19
05
1;
07
0*
1)
16
#254000
0!
02
03
#254500
1!
12
13
15
17
1*
1E
06
0C
0A
0?
0<
08
0H
0F
