SynchronousCounter/simulation/qsim/SynchronousCounter.msim.vcd
$comment
	File created using the following command:
		vcd file SynchronousCounter.msim.vcd -direction
$end
$date
	Tue Oct 18 13:57:24 2022
$end
$version
	ModelSim Version 10.5b
$end
$timescale
	1ps
$end

$scope module SynchronousCounter_vlg_vec_tst $end
$var reg 1 ! CLK $end
$var reg 1 " CLRN $end
$var reg 4 # D [3:0] $end
$var reg 1 $ LOAD $end
$var wire 1 % Q [7] $end
$var wire 1 & Q [6] $end
$var wire 1 ' Q [5] $end
$var wire 1 ( Q [4] $end
$var wire 1 ) Q [3] $end
$var wire 1 * Q [2] $end
$var wire 1 + Q [1] $end
$var wire 1 , Q [0] $end

$scope module i1 $end
$var wire 1 - gnd $end
$var wire 1 . vcc $end
$var wire 1 / unknown $end
$var tri1 1 0 devclrn $end
$var tri1 1 1 devpor $end
$var tri1 1 2 devoe $end
$var wire 1 3 Q[7]~output_o $end
$var wire 1 4 Q[6]~output_o $end
$var wire 1 5 Q[5]~output_o $end
$var wire 1 6 Q[4]~output_o $end
$var wire 1 7 Q[3]~output_o $end
$var wire 1 8 Q[2]~output_o $end
$var wire 1 9 Q[1]~output_o $end
$var wire 1 : Q[0]~output_o $end
$var wire 1 ; CLK~input_o $end
$var wire 1 < LOAD~input_o $end
$var wire 1 = D[0]~input_o $end
$var wire 1 > inst1|instA1~combout $end
$var wire 1 ? CLRN~input_o $end
$var wire 1 @ inst1|instA14~combout $end
$var wire 1 A inst1|inst~1_combout $end
$var wire 1 B inst1|inst~3_combout $end
$var wire 1 C inst1|inst~0_combout $end
$var wire 1 D inst1|inst~_emulated_q $end
$var wire 1 E inst1|inst~2_combout $end
$var wire 1 F D[1]~input_o $end
$var wire 1 G inst18|instA1~combout $end
$var wire 1 H inst18|instA14~combout $end
$var wire 1 I inst18|inst~1_combout $end
$var wire 1 J inst18|inst~3_combout $end
$var wire 1 K inst18|inst~0_combout $end
$var wire 1 L inst18|inst~_emulated_q $end
$var wire 1 M inst18|inst~2_combout $end
$var wire 1 N D[2]~input_o $end
$var wire 1 O inst19|instA1~combout $end
$var wire 1 P inst19|instA14~combout $end
$var wire 1 Q inst19|inst~1_combout $end
$var wire 1 R inst19|inst~3_combout $end
$var wire 1 S inst19|inst~0_combout $end
$var wire 1 T inst19|inst~_emulated_q $end
$var wire 1 U inst19|inst~2_combout $end
$var wire 1 V D[3]~input_o $end
$var wire 1 W inst20|instA1~combout $end
$var wire 1 X inst20|instA14~combout $end
$var wire 1 Y inst20|inst~1_combout $end
$var wire 1 Z inst20|inst~3_combout $end
$var wire 1 [ inst20|inst~0_combout $end
$var wire 1 \ inst20|inst~_emulated_q $end
$var wire 1 ] inst20|inst~2_combout $end
$var wire 1 ^ inst7~0_combout $end
$var wire 1 _ inst7~q $end
$var wire 1 ` inst10~0_combout $end
$var wire 1 a inst10~q $end
$var wire 1 b inst12~1_combout $end
$var wire 1 c inst12~0_combout $end
$var wire 1 d inst12~q $end
$var wire 1 e inst14~1_combout $end
$var wire 1 f inst14~0_combout $end
$var wire 1 g inst14~q $end
$upscope $end
$upscope $end
$enddefinitions $end
#0
$dumpvars
0!
0"
b1 #
0$
0,
0+
0*
0)
0(
0'
0&
0%
0-
1.
x/
10
11
12
03
04
05
06
07
08
09
0:
0;
0<
1=
0>
0?
1@
0A
1B
1C
0D
0E
0F
0G
1H
0I
0J
1K
0L
0M
0N
0O
1P
0Q
0R
1S
0T
0U
0V
0W
1X
0Y
0Z
1[
0\
0]
0^
0_
0`
0a
0b
0c
0d
0e
0f
0g
$end
#5000
1!
1;
#10000
1"
0!
1?
0;
0X
0P
0H
0@
0C
0K
0S
0[
#15000
1!
1;
1D
1E
1:
1,
1J
0B
#20000
0!
0;
#25000
1!
1;
1L
0D
0E
1M
19
0:
0,
1+
1B
#30000
0!
0;
#35000
1!
1;
1D
1E
1:
1,
1R
0J
0B
#40000
0!
0;
#45000
1!
1;
1T
0L
0D
0E
0M
1U
18
09
0:
0,
0+
1*
1B
#50000
0!
0;
#55000
1!
1;
1D
1E
1:
1,
1J
0B
#60000
0!
0;
#65000
1!
1;
1L
0D
0E
1M
19
0:
0,
1+
1B
#70000
0!
0;
#75000
1!
1;
1D
1E
1:
1,
1Z
0R
0J
0B
#80000
0!
0;
#85000
1!
1;
1\
0T
0L
0D
0E
0M
0U
1]
17
08
09
0:
0,
0+
0*
1)
1B
#90000
0!
0;
#95000
1!
1;
1D
1E
1:
1,
1J
0B
#100000
0!
0;
#105000
1!
1;
1L
0D
0E
1M
19
0:
0,
1+
1B
#110000
0!
0;
#115000
1!
1;
1D
1E
1:
1,
1R
0J
0B
#120000
0!
0;
#125000
1!
1;
1T
0L
0D
0E
0M
1U
18
09
0:
0,
0+
1*
1B
#130000
0!
0;
#135000
1!
1;
1D
1E
1:
1,
1J
0B
#140000
0!
0;
#145000
1!
1;
1L
0D
0E
1M
19
0:
0,
1+
1B
#150000
0!
0;
#155000
1!
1;
1D
1E
1:
1,
1^
0Z
0R
0J
0B
#160000
0!
0;
#165000
1!
1;
0\
0T
0L
0D
1_
16
1(
0E
0M
0U
0]
1`
0^
07
08
09
0:
0,
0+
0*
0)
0`
1^
1B
#170000
0!
0;
#175000
1!
1;
1D
1E
1:
1,
1J
0B
#180000
0!
0;
#185000
1!
1;
1L
0D
0E
1M
19
0:
0,
1+
1B
#190000
0!
0;
#195000
1!
1;
1D
1E
1:
1,
1R
0J
0B
#200000
0!
0;
#205000
1!
1;
1T
0L
0D
0E
0M
1U
18
09
0:
0,
0+
1*
1B
#210000
0!
0;
#215000
1!
1;
1D
1E
1:
1,
1J
0B
#220000
0!
0;
#225000
1!
1;
1L
0D
0E
1M
19
0:
0,
1+
1B
#230000
0!
0;
#235000
1!
1;
1D
1E
1:
1,
1Z
0R
0J
0B
#240000
0!
0;
#245000
1!
1;
1\
0T
0L
0D
0E
0M
0U
1]
17
08
09
0:
0,
0+
0*
1)
1B
#250000
0!
0;
#255000
1!
1;
1D
1E
1:
1,
1J
0B
#260000
0!
0;
#265000
1!
1;
1L
0D
0E
1M
19
0:
0,
1+
1B
#270000
0!
0;
#275000
1!
1;
1D
1E
1:
1,
1R
0J
0B
#280000
0!
0;
#285000
1!
1;
1T
0L
0D
0E
0M
1U
18
09
0:
0,
0+
1*
1B
#290000
0!
0;
#295000
1!
1;
1D
1E
1:
1,
1J
0B
#300000
0!
0;
#305000
1!
1;
1L
0D
0E
1M
19
0:
0,
1+
1B
#310000
0!
0;
#315000
1!
1;
1D
1E
1:
1,
1`
0^
0Z
0R
0J
0B
#320000
0!
0;
#325000
1!
1;
0\
0T
0L
0D
1a
0_
06
15
1'
0(
0E
0M
0U
0]
1^
07
08
09
0:
0,
0+
0*
0)
0^
1B
#330000
0!
0;
#335000
1!
1;
1D
1E
1:
1,
1J
0B
#340000
0!
0;
#345000
1!
1;
1L
0D
0E
1M
19
0:
0,
1+
1B
#350000
0!
0;
#355000
1!
1;
1D
1E
1:
1,
1R
0J
0B
#360000
0!
0;
#365000
1!
1;
1T
0L
0D
0E
0M
1U
18
09
0:
0,
0+
1*
1B
#370000
0!
0;
#375000
1!
1;
1D
1E
1:
1,
1J
0B
#380000
0!
0;
#385000
1!
1;
1L
0D
0E
1M
19
0:
0,
1+
1B
#390000
0!
0;
#395000
1!
1;
1D
1E
1:
1,
1Z
0R
0J
0B
#400000
0!
0;
#405000
1!
1;
1\
0T
0L
0D
0E
0M
0U
1]
17
08
09
0:
0,
0+
0*
1)
1B
#410000
0!
0;
#415000
1!
1;
1D
1E
1:
1,
1J
0B
#420000
0!
0;
#425000
1!
1;
1L
0D
0E
1M
19
0:
0,
1+
1B
#430000
0!
0;
#435000
1!
1;
1D
1E
1:
1,
1R
0J
0B
#440000
0!
0;
#445000
1!
1;
1T
0L
0D
0E
0M
1U
18
09
0:
0,
0+
1*
1B
#450000
0!
0;
#455000
1!
1;
1D
1E
1:
1,
1J
0B
#460000
0!
0;
#465000
1!
1;
1L
0D
0E
1M
19
0:
0,
1+
1B
#470000
0!
0;
#475000
1!
1;
1D
1E
1:
1,
1^
0Z
0R
0J
0B
#480000
0!
0;
#485000
1!
1;
0\
0T
0L
0D
1_
16
1b
1(
0E
0M
0U
0]
0`
0^
07
08
09
0:
0,
0+
0*
0)
1`
1^
1B
#490000
0!
0;
#495000
1!
1;
1D
1E
1:
1,
1J
0B
#500000
0!
0;
#505000
1!
1;
1L
0D
0E
1M
19
0:
0,
1+
1B
#510000
0!
0;
#515000
1!
1;
1D
1E
1:
1,
1R
0J
0B
#520000
0"
0!
0?
0;
1X
1P
1H
1@
1C
1K
1S
1[
0E
0M
09
0:
0,
0+
0R
1B
0D
0L
0_
0a
05
06
0b
0(
0'
0`
0^
#525000
1!
1;
#530000
1"
0!
1?
0;
0X
0P
0H
0@
0C
0K
0S
0[
#535000
1!
1;
1D
1E
1:
1,
1J
0B
#540000
0!
0;
#545000
1!
1;
1L
0D
0E
1M
19
0:
0,
1+
1B
#550000
0!
0;
#555000
1!
1;
1D
1E
1:
1,
1R
0J
0B
#560000
0!
0;
#565000
1!
1;
1T
0L
0D
0E
0M
1U
18
09
0:
0,
0+
1*
1B
#570000
0!
0;
#575000
1!
1;
1D
1E
1:
1,
1J
0B
#580000
0!
0;
#585000
1!
1;
1L
0D
0E
1M
19
0:
0,
1+
1B
#590000
0!
0;
#595000
1!
1;
1D
1E
1:
1,
1Z
0R
0J
0B
#600000
0!
0;
#605000
1!
1;
1\
0T
0L
0D
0E
0M
0U
1]
17
08
09
0:
0,
0+
0*
1)
1B
#610000
0!
0;
#615000
1!
1;
1D
1E
1:
1,
1J
0B
#620000
1$
0!
1<
0;
1X
1P
1H
1>
1C
1A
1K
1S
1[
0]
07
0)
1B
0Z
0D
0\
#625000
1!
1;
#630000
0$
0!
0<
0;
0X
0P
0H
0>
0C
0K
0S
0[
#635000
1!
1;
1L
1D
0E
1M
19
0:
0,
1+
0B
#640000
0!
0;
#645000
1!
1;
0D
1E
1:
1,
1R
0J
1B
#650000
0!
0;
#655000
1!
1;
1T
0L
1D
0E
0M
1U
18
09
0:
0,
0+
1*
0B
#660000
0!
0;
#665000
1!
1;
0D
1E
1:
1,
1J
1B
#670000
0!
0;
#675000
1!
1;
1L
1D
0E
1M
19
0:
0,
1+
0B
#680000
0!
0;
#685000
1!
1;
0D
1E
1:
1,
1Z
0R
0J
1B
#690000
0!
0;
#695000
1!
1;
1\
0T
0L
1D
0E
0M
0U
1]
17
08
09
0:
0,
0+
0*
1)
0B
#700000
0!
0;
#705000
1!
1;
0D
1E
1:
1,
1J
1B
#710000
0!
0;
#715000
1!
1;
1L
1D
0E
1M
19
0:
0,
1+
0B
#720000
0!
0;
#725000
1!
1;
0D
1E
1:
1,
1R
0J
1B
#730000
0!
0;
#735000
1!
1;
1T
0L
1D
0E
0M
1U
18
09
0:
0,
0+
1*
0B
#740000
0!
0;
#745000
1!
1;
0D
1E
1:
1,
1J
1B
#750000
0!
0;
#755000
1!
1;
1L
1D
0E
1M
19
0:
0,
1+
0B
#760000
0!
0;
#765000
1!
1;
0D
1E
1:
1,
1^
0Z
0R
0J
1B
#770000
0!
0;
#775000
1!
1;
0\
0T
0L
1D
1_
16
1(
0E
0M
0U
0]
1`
0^
07
08
09
0:
0,
0+
0*
0)
0`
1^
0B
#780000
0!
0;
#785000
1!
1;
0D
1E
1:
1,
1J
1B
#790000
0!
0;
#795000
1!
1;
1L
1D
0E
1M
19
0:
0,
1+
0B
#800000
0!
0;
#805000
1!
1;
0D
1E
1:
1,
1R
0J
1B
#810000
0!
0;
#815000
1!
1;
1T
0L
1D
0E
0M
1U
18
09
0:
0,
0+
1*
0B
#820000
0!
0;
#825000
1!
1;
0D
1E
1:
1,
1J
1B
#830000
0!
0;
#835000
1!
1;
1L
1D
0E
1M
19
0:
0,
1+
0B
#840000
0!
0;
#845000
1!
1;
0D
1E
1:
1,
1Z
0R
0J
1B
#850000
0!
0;
#855000
1!
1;
1\
0T
0L
1D
0E
0M
0U
1]
17
08
09
0:
0,
0+
0*
1)
0B
#860000
0!
0;
#865000
1!
1;
0D
1E
1:
1,
1J
1B
#870000
0!
0;
#875000
1!
1;
1L
1D
0E
1M
19
0:
0,
1+
0B
#880000
0!
0;
#885000
1!
1;
0D
1E
1:
1,
1R
0J
1B
#890000
0!
0;
#895000
1!
1;
1T
0L
1D
0E
0M
1U
18
09
0:
0,
0+
1*
0B
#900000
0!
0;
#905000
1!
1;
0D
1E
1:
1,
1J
1B
#910000
0!
0;
#915000
1!
1;
1L
1D
0E
1M
19
0:
0,
1+
0B
#920000
0!
0;
#925000
1!
1;
0D
1E
1:
1,
1`
0^
0Z
0R
0J
1B
#930000
0!
0;
#935000
1!
1;
0\
0T
0L
1D
1a
0_
06
15
1'
0(
0E
0M
0U
0]
1^
07
08
09
0:
0,
0+
0*
0)
0^
0B
#940000
0!
0;
#945000
1!
1;
0D
1E
1:
1,
1J
1B
#950000
0!
0;
#955000
1!
1;
1L
1D
0E
1M
19
0:
0,
1+
0B
#960000
0!
0;
#965000
1!
1;
0D
1E
1:
1,
1R
0J
1B
#970000
0!
0;
#975000
1!
1;
1T
0L
1D
0E
0M
1U
18
09
0:
0,
0+
1*
0B
#980000
0!
0;
#985000
1!
1;
0D
1E
1:
1,
1J
1B
#990000
0!
0;
#995000
1!
1;
1L
1D
0E
1M
19
0:
0,
1+
0B
